(kicad_sch (version 20211123) (generator eeschema)

  (uuid 9295e426-5b05-4d04-ab70-4a3f73dc0e0f)

  (paper "A4")

  (title_block
    (title "Microcontroller Schematic")
    (date "2022-03-10")
    (comment 1 "This is a schematic of the microcontroller connection with other submodules and  the memory IC")
    (comment 2 "Author: Mbasa Mguguma")
  )

  (lib_symbols
    (symbol "MCU_ST_STM32F0:STM32F030C8Tx" (in_bom yes) (on_board yes)
      (property "Reference" "U" (id 0) (at -12.7 39.37 0)
        (effects (font (size 1.27 1.27)) (justify left))
      )
      (property "Value" "STM32F030C8Tx" (id 1) (at 7.62 39.37 0)
        (effects (font (size 1.27 1.27)) (justify left))
      )
      (property "Footprint" "Package_QFP:LQFP-48_7x7mm_P0.5mm" (id 2) (at -12.7 -38.1 0)
        (effects (font (size 1.27 1.27)) (justify right) hide)
      )
      (property "Datasheet" "http://www.st.com/st-web-ui/static/active/en/resource/technical/document/datasheet/DM00088500.pdf" (id 3) (at 0 0 0)
        (effects (font (size 1.27 1.27)) hide)
      )
      (property "ki_keywords" "ARM Cortex-M0 STM32F0 STM32F0x0 Value Line" (id 4) (at 0 0 0)
        (effects (font (size 1.27 1.27)) hide)
      )
      (property "ki_description" "ARM Cortex-M0 MCU, 64KB flash, 8KB RAM, 48MHz, 2.4-3.6V, 39 GPIO, LQFP-48" (id 5) (at 0 0 0)
        (effects (font (size 1.27 1.27)) hide)
      )
      (property "ki_fp_filters" "LQFP*7x7mm*P0.5mm*" (id 6) (at 0 0 0)
        (effects (font (size 1.27 1.27)) hide)
      )
      (symbol "STM32F030C8Tx_0_1"
        (rectangle (start -12.7 -38.1) (end 12.7 38.1)
          (stroke (width 0.254) (type default) (color 0 0 0 0))
          (fill (type background))
        )
      )
      (symbol "STM32F030C8Tx_1_1"
        (pin power_in line (at -2.54 40.64 270) (length 2.54)
          (name "VDD" (effects (font (size 1.27 1.27))))
          (number "1" (effects (font (size 1.27 1.27))))
        )
        (pin bidirectional line (at 15.24 2.54 180) (length 2.54)
          (name "PA0" (effects (font (size 1.27 1.27))))
          (number "10" (effects (font (size 1.27 1.27))))
        )
        (pin bidirectional line (at 15.24 0 180) (length 2.54)
          (name "PA1" (effects (font (size 1.27 1.27))))
          (number "11" (effects (font (size 1.27 1.27))))
        )
        (pin bidirectional line (at 15.24 -2.54 180) (length 2.54)
          (name "PA2" (effects (font (size 1.27 1.27))))
          (number "12" (effects (font (size 1.27 1.27))))
        )
        (pin bidirectional line (at 15.24 -5.08 180) (length 2.54)
          (name "PA3" (effects (font (size 1.27 1.27))))
          (number "13" (effects (font (size 1.27 1.27))))
        )
        (pin bidirectional line (at 15.24 -7.62 180) (length 2.54)
          (name "PA4" (effects (font (size 1.27 1.27))))
          (number "14" (effects (font (size 1.27 1.27))))
        )
        (pin bidirectional line (at 15.24 -10.16 180) (length 2.54)
          (name "PA5" (effects (font (size 1.27 1.27))))
          (number "15" (effects (font (size 1.27 1.27))))
        )
        (pin bidirectional line (at 15.24 -12.7 180) (length 2.54)
          (name "PA6" (effects (font (size 1.27 1.27))))
          (number "16" (effects (font (size 1.27 1.27))))
        )
        (pin bidirectional line (at 15.24 -15.24 180) (length 2.54)
          (name "PA7" (effects (font (size 1.27 1.27))))
          (number "17" (effects (font (size 1.27 1.27))))
        )
        (pin bidirectional line (at -15.24 2.54 0) (length 2.54)
          (name "PB0" (effects (font (size 1.27 1.27))))
          (number "18" (effects (font (size 1.27 1.27))))
        )
        (pin bidirectional line (at -15.24 0 0) (length 2.54)
          (name "PB1" (effects (font (size 1.27 1.27))))
          (number "19" (effects (font (size 1.27 1.27))))
        )
        (pin bidirectional line (at -15.24 12.7 0) (length 2.54)
          (name "PC13" (effects (font (size 1.27 1.27))))
          (number "2" (effects (font (size 1.27 1.27))))
        )
        (pin bidirectional line (at -15.24 -2.54 0) (length 2.54)
          (name "PB2" (effects (font (size 1.27 1.27))))
          (number "20" (effects (font (size 1.27 1.27))))
        )
        (pin bidirectional line (at -15.24 -22.86 0) (length 2.54)
          (name "PB10" (effects (font (size 1.27 1.27))))
          (number "21" (effects (font (size 1.27 1.27))))
        )
        (pin bidirectional line (at -15.24 -25.4 0) (length 2.54)
          (name "PB11" (effects (font (size 1.27 1.27))))
          (number "22" (effects (font (size 1.27 1.27))))
        )
        (pin power_in line (at -2.54 -40.64 90) (length 2.54)
          (name "VSS" (effects (font (size 1.27 1.27))))
          (number "23" (effects (font (size 1.27 1.27))))
        )
        (pin power_in line (at 0 40.64 270) (length 2.54)
          (name "VDD" (effects (font (size 1.27 1.27))))
          (number "24" (effects (font (size 1.27 1.27))))
        )
        (pin bidirectional line (at -15.24 -27.94 0) (length 2.54)
          (name "PB12" (effects (font (size 1.27 1.27))))
          (number "25" (effects (font (size 1.27 1.27))))
        )
        (pin bidirectional line (at -15.24 -30.48 0) (length 2.54)
          (name "PB13" (effects (font (size 1.27 1.27))))
          (number "26" (effects (font (size 1.27 1.27))))
        )
        (pin bidirectional line (at -15.24 -33.02 0) (length 2.54)
          (name "PB14" (effects (font (size 1.27 1.27))))
          (number "27" (effects (font (size 1.27 1.27))))
        )
        (pin bidirectional line (at -15.24 -35.56 0) (length 2.54)
          (name "PB15" (effects (font (size 1.27 1.27))))
          (number "28" (effects (font (size 1.27 1.27))))
        )
        (pin bidirectional line (at 15.24 -17.78 180) (length 2.54)
          (name "PA8" (effects (font (size 1.27 1.27))))
          (number "29" (effects (font (size 1.27 1.27))))
        )
        (pin bidirectional line (at -15.24 10.16 0) (length 2.54)
          (name "PC14" (effects (font (size 1.27 1.27))))
          (number "3" (effects (font (size 1.27 1.27))))
        )
        (pin bidirectional line (at 15.24 -20.32 180) (length 2.54)
          (name "PA9" (effects (font (size 1.27 1.27))))
          (number "30" (effects (font (size 1.27 1.27))))
        )
        (pin bidirectional line (at 15.24 -22.86 180) (length 2.54)
          (name "PA10" (effects (font (size 1.27 1.27))))
          (number "31" (effects (font (size 1.27 1.27))))
        )
        (pin bidirectional line (at 15.24 -25.4 180) (length 2.54)
          (name "PA11" (effects (font (size 1.27 1.27))))
          (number "32" (effects (font (size 1.27 1.27))))
        )
        (pin bidirectional line (at 15.24 -27.94 180) (length 2.54)
          (name "PA12" (effects (font (size 1.27 1.27))))
          (number "33" (effects (font (size 1.27 1.27))))
        )
        (pin bidirectional line (at 15.24 -30.48 180) (length 2.54)
          (name "PA13" (effects (font (size 1.27 1.27))))
          (number "34" (effects (font (size 1.27 1.27))))
        )
        (pin bidirectional line (at -15.24 20.32 0) (length 2.54)
          (name "PF6" (effects (font (size 1.27 1.27))))
          (number "35" (effects (font (size 1.27 1.27))))
        )
        (pin bidirectional line (at -15.24 17.78 0) (length 2.54)
          (name "PF7" (effects (font (size 1.27 1.27))))
          (number "36" (effects (font (size 1.27 1.27))))
        )
        (pin bidirectional line (at 15.24 -33.02 180) (length 2.54)
          (name "PA14" (effects (font (size 1.27 1.27))))
          (number "37" (effects (font (size 1.27 1.27))))
        )
        (pin bidirectional line (at 15.24 -35.56 180) (length 2.54)
          (name "PA15" (effects (font (size 1.27 1.27))))
          (number "38" (effects (font (size 1.27 1.27))))
        )
        (pin bidirectional line (at -15.24 -5.08 0) (length 2.54)
          (name "PB3" (effects (font (size 1.27 1.27))))
          (number "39" (effects (font (size 1.27 1.27))))
        )
        (pin bidirectional line (at -15.24 7.62 0) (length 2.54)
          (name "PC15" (effects (font (size 1.27 1.27))))
          (number "4" (effects (font (size 1.27 1.27))))
        )
        (pin bidirectional line (at -15.24 -7.62 0) (length 2.54)
          (name "PB4" (effects (font (size 1.27 1.27))))
          (number "40" (effects (font (size 1.27 1.27))))
        )
        (pin bidirectional line (at -15.24 -10.16 0) (length 2.54)
          (name "PB5" (effects (font (size 1.27 1.27))))
          (number "41" (effects (font (size 1.27 1.27))))
        )
        (pin bidirectional line (at -15.24 -12.7 0) (length 2.54)
          (name "PB6" (effects (font (size 1.27 1.27))))
          (number "42" (effects (font (size 1.27 1.27))))
        )
        (pin bidirectional line (at -15.24 -15.24 0) (length 2.54)
          (name "PB7" (effects (font (size 1.27 1.27))))
          (number "43" (effects (font (size 1.27 1.27))))
        )
        (pin input line (at -15.24 30.48 0) (length 2.54)
          (name "BOOT0" (effects (font (size 1.27 1.27))))
          (number "44" (effects (font (size 1.27 1.27))))
        )
        (pin bidirectional line (at -15.24 -17.78 0) (length 2.54)
          (name "PB8" (effects (font (size 1.27 1.27))))
          (number "45" (effects (font (size 1.27 1.27))))
        )
        (pin bidirectional line (at -15.24 -20.32 0) (length 2.54)
          (name "PB9" (effects (font (size 1.27 1.27))))
          (number "46" (effects (font (size 1.27 1.27))))
        )
        (pin power_in line (at 0 -40.64 90) (length 2.54)
          (name "VSS" (effects (font (size 1.27 1.27))))
          (number "47" (effects (font (size 1.27 1.27))))
        )
        (pin power_in line (at 2.54 40.64 270) (length 2.54)
          (name "VDD" (effects (font (size 1.27 1.27))))
          (number "48" (effects (font (size 1.27 1.27))))
        )
        (pin input line (at -15.24 25.4 0) (length 2.54)
          (name "PF0" (effects (font (size 1.27 1.27))))
          (number "5" (effects (font (size 1.27 1.27))))
        )
        (pin input line (at -15.24 22.86 0) (length 2.54)
          (name "PF1" (effects (font (size 1.27 1.27))))
          (number "6" (effects (font (size 1.27 1.27))))
        )
        (pin input line (at -15.24 35.56 0) (length 2.54)
          (name "NRST" (effects (font (size 1.27 1.27))))
          (number "7" (effects (font (size 1.27 1.27))))
        )
        (pin power_in line (at 2.54 -40.64 90) (length 2.54)
          (name "VSSA" (effects (font (size 1.27 1.27))))
          (number "8" (effects (font (size 1.27 1.27))))
        )
        (pin power_in line (at 5.08 40.64 270) (length 2.54)
          (name "VDDA" (effects (font (size 1.27 1.27))))
          (number "9" (effects (font (size 1.27 1.27))))
        )
      )
    )
    (symbol "Memory_EEPROM:M24C02-WMN" (in_bom yes) (on_board yes)
      (property "Reference" "U" (id 0) (at -6.35 6.35 0)
        (effects (font (size 1.27 1.27)))
      )
      (property "Value" "M24C02-WMN" (id 1) (at 7.62 6.35 0)
        (effects (font (size 1.27 1.27)))
      )
      (property "Footprint" "Package_SO:SOIC-8_3.9x4.9mm_P1.27mm" (id 2) (at 0 8.89 0)
        (effects (font (size 1.27 1.27)) hide)
      )
      (property "Datasheet" "http://www.st.com/content/ccc/resource/technical/document/datasheet/b0/d8/50/40/5a/85/49/6f/DM00071904.pdf/files/DM00071904.pdf/jcr:content/translations/en.DM00071904.pdf" (id 3) (at 1.27 -12.7 0)
        (effects (font (size 1.27 1.27)) hide)
      )
      (property "ki_keywords" "Nonvolatile Non-Volatile Memory ROM ST" (id 4) (at 0 0 0)
        (effects (font (size 1.27 1.27)) hide)
      )
      (property "ki_description" "2Kb (256x8) I2C Serial EEPROM, 2.5-5.5V, SOIC-8" (id 5) (at 0 0 0)
        (effects (font (size 1.27 1.27)) hide)
      )
      (property "ki_fp_filters" "SOIC*3.9x4.9mm*P1.27mm*" (id 6) (at 0 0 0)
        (effects (font (size 1.27 1.27)) hide)
      )
      (symbol "M24C02-WMN_0_1"
        (rectangle (start -7.62 5.08) (end 7.62 -5.08)
          (stroke (width 0.254) (type default) (color 0 0 0 0))
          (fill (type background))
        )
      )
      (symbol "M24C02-WMN_1_1"
        (pin input line (at -10.16 2.54 0) (length 2.54)
          (name "E0" (effects (font (size 1.27 1.27))))
          (number "1" (effects (font (size 1.27 1.27))))
        )
        (pin input line (at -10.16 0 0) (length 2.54)
          (name "E1" (effects (font (size 1.27 1.27))))
          (number "2" (effects (font (size 1.27 1.27))))
        )
        (pin input line (at -10.16 -2.54 0) (length 2.54)
          (name "E2" (effects (font (size 1.27 1.27))))
          (number "3" (effects (font (size 1.27 1.27))))
        )
        (pin power_in line (at 0 -7.62 90) (length 2.54)
          (name "VSS" (effects (font (size 1.27 1.27))))
          (number "4" (effects (font (size 1.27 1.27))))
        )
        (pin bidirectional line (at 10.16 2.54 180) (length 2.54)
          (name "SDA" (effects (font (size 1.27 1.27))))
          (number "5" (effects (font (size 1.27 1.27))))
        )
        (pin input line (at 10.16 0 180) (length 2.54)
          (name "SCL" (effects (font (size 1.27 1.27))))
          (number "6" (effects (font (size 1.27 1.27))))
        )
        (pin input line (at 10.16 -2.54 180) (length 2.54)
          (name "~{WC}" (effects (font (size 1.27 1.27))))
          (number "7" (effects (font (size 1.27 1.27))))
        )
        (pin power_in line (at 0 7.62 270) (length 2.54)
          (name "VCC" (effects (font (size 1.27 1.27))))
          (number "8" (effects (font (size 1.27 1.27))))
        )
      )
    )
  )


  (wire (pts (xy 198.12 105.41) (xy 218.44 105.41))
    (stroke (width 0) (type default) (color 0 0 0 0))
    (uuid 00f2b0a0-507d-446a-950d-48d9427e3a64)
  )
  (wire (pts (xy 231.14 59.69) (xy 231.14 62.23))
    (stroke (width 0) (type default) (color 0 0 0 0))
    (uuid 0e60609d-f699-4483-a2c8-a74ec27c67ce)
  )
  (wire (pts (xy 195.58 142.24) (xy 204.47 142.24))
    (stroke (width 0) (type default) (color 0 0 0 0))
    (uuid 0ed0ab25-d516-4389-8990-5b9362e95603)
  )
  (wire (pts (xy 185.42 149.86) (xy 167.64 149.86))
    (stroke (width 0) (type default) (color 0 0 0 0))
    (uuid 125a9fd1-f4bc-41f7-815c-21c249ebe4d6)
  )
  (wire (pts (xy 209.55 144.78) (xy 209.55 118.11))
    (stroke (width 0) (type default) (color 0 0 0 0))
    (uuid 28915f3b-2f4d-4add-a7f4-773dba4181dc)
  )
  (wire (pts (xy 204.47 142.24) (xy 204.47 115.57))
    (stroke (width 0) (type default) (color 0 0 0 0))
    (uuid 42a91717-a2fd-4148-b1a2-0521559d8a1e)
  )
  (wire (pts (xy 195.58 144.78) (xy 209.55 144.78))
    (stroke (width 0) (type default) (color 0 0 0 0))
    (uuid 43ea9d23-a552-485e-948f-f9647f4c036a)
  )
  (wire (pts (xy 204.47 102.87) (xy 218.44 102.87))
    (stroke (width 0) (type default) (color 0 0 0 0))
    (uuid 75bda845-7956-4821-8322-51516412a1ba)
  )
  (wire (pts (xy 193.04 107.95) (xy 218.44 107.95))
    (stroke (width 0) (type default) (color 0 0 0 0))
    (uuid 7add7eb6-d625-4df3-9f98-f412bfdfd47f)
  )
  (wire (pts (xy 167.64 59.69) (xy 231.14 59.69))
    (stroke (width 0) (type default) (color 0 0 0 0))
    (uuid 7e447940-1f60-4ab8-af01-91c9d71d955e)
  )
  (wire (pts (xy 204.47 115.57) (xy 218.44 115.57))
    (stroke (width 0) (type default) (color 0 0 0 0))
    (uuid 8279ff5c-f9c0-4167-a189-85c9ed957197)
  )
  (wire (pts (xy 248.92 102.87) (xy 256.54 102.87))
    (stroke (width 0) (type default) (color 0 0 0 0))
    (uuid 907e75ed-41c3-4752-ad60-c310418314aa)
  )
  (wire (pts (xy 167.64 149.86) (xy 167.64 59.69))
    (stroke (width 0) (type default) (color 0 0 0 0))
    (uuid 9341652e-4d70-4290-b89a-0eb81f49472a)
  )
  (wire (pts (xy 248.92 107.95) (xy 270.51 107.95))
    (stroke (width 0) (type default) (color 0 0 0 0))
    (uuid 93a81c3c-af22-47e6-b1ef-22e921666876)
  )
  (wire (pts (xy 185.42 134.62) (xy 214.63 134.62))
    (stroke (width 0) (type default) (color 0 0 0 0))
    (uuid 97d9fb88-4a3d-4ab7-a8c5-728ad085fcfc)
  )
  (wire (pts (xy 231.14 147.32) (xy 231.14 143.51))
    (stroke (width 0) (type default) (color 0 0 0 0))
    (uuid b3fdfda4-25f3-479d-9c58-ed0d523fbbf7)
  )
  (wire (pts (xy 209.55 118.11) (xy 218.44 118.11))
    (stroke (width 0) (type default) (color 0 0 0 0))
    (uuid ba405cb6-a5b3-4f30-9ccd-6f4bb73f1ade)
  )
  (wire (pts (xy 248.92 105.41) (xy 262.89 105.41))
    (stroke (width 0) (type default) (color 0 0 0 0))
    (uuid bca4b51f-7877-4161-8997-7e44cb244d10)
  )
  (wire (pts (xy 214.63 134.62) (xy 214.63 147.32))
    (stroke (width 0) (type default) (color 0 0 0 0))
    (uuid c4dff348-e5ed-47af-829c-281a34afd1c5)
  )
  (wire (pts (xy 214.63 147.32) (xy 231.14 147.32))
    (stroke (width 0) (type default) (color 0 0 0 0))
    (uuid dae977a1-f7b6-4ba1-abbb-811370d6e351)
  )
  (wire (pts (xy 252.73 100.33) (xy 248.92 100.33))
    (stroke (width 0) (type default) (color 0 0 0 0))
    (uuid de52b0b9-2443-4b7d-8c8d-d6e5a7001826)
  )
  (wire (pts (xy 210.82 100.33) (xy 218.44 100.33))
    (stroke (width 0) (type default) (color 0 0 0 0))
    (uuid eeafedda-b943-4cda-b337-5aa86e17ff34)
  )

  (label "digital sensor PA2" (at 262.89 105.41 0)
    (effects (font (size 1.27 1.27)) (justify left bottom))
    (uuid 36321315-5fdc-40ff-9129-e3f730c52f61)
  )
  (label "digital sensor PA1" (at 256.54 102.87 0)
    (effects (font (size 1.27 1.27)) (justify left bottom))
    (uuid 5aff67cc-880a-4ef1-994f-98d2a90a75e6)
  )
  (label "digital sensor PA3" (at 270.51 107.95 0)
    (effects (font (size 1.27 1.27)) (justify left bottom))
    (uuid 8332229b-c958-44ae-ba00-ec089490c041)
  )
  (label "analog sensor PB0" (at 210.82 100.33 180)
    (effects (font (size 1.27 1.27)) (justify right bottom))
    (uuid 8c9b1f58-ad8a-4623-a293-24c7febc4e53)
  )
  (label "analog sensor PB1" (at 204.47 102.87 180)
    (effects (font (size 1.27 1.27)) (justify right bottom))
    (uuid 92d34e43-09b0-4673-82ce-2779f5edc922)
  )
  (label "analog sensor PB2" (at 198.12 105.41 180)
    (effects (font (size 1.27 1.27)) (justify right bottom))
    (uuid 98f4f1ca-3f28-4b2d-8c1e-1896215ce43c)
  )
  (label "analog sensor PB3" (at 193.04 107.95 180)
    (effects (font (size 1.27 1.27)) (justify right bottom))
    (uuid a0521305-d1ef-4c68-99cf-86b7f084efcd)
  )
  (label "digital sensor PA0" (at 252.73 100.33 0)
    (effects (font (size 1.27 1.27)) (justify left bottom))
    (uuid b0ced032-5d17-4026-94b9-71ac56ad55c9)
  )
  (label "Power submodule" (at 233.68 62.23 90)
    (effects (font (size 1.27 1.27)) (justify left bottom))
    (uuid d642b4cf-9da1-4fcf-a6da-354616a8778b)
  )

  (symbol (lib_id "MCU_ST_STM32F0:STM32F030C8Tx") (at 233.68 102.87 0) (unit 1)
    (in_bom yes) (on_board yes) (fields_autoplaced)
    (uuid 4176cbad-421c-48d2-8592-8f8ebab45c69)
    (property "Reference" "U1" (id 0) (at 238.2394 143.51 0)
      (effects (font (size 1.27 1.27)) (justify left))
    )
    (property "Value" "STM32F030C8T6" (id 1) (at 238.2394 146.05 0)
      (effects (font (size 1.27 1.27)) (justify left))
    )
    (property "Footprint" "Package_QFP:LQFP-48_7x7mm_P0.5mm" (id 2) (at 220.98 140.97 0)
      (effects (font (size 1.27 1.27)) (justify right) hide)
    )
    (property "Datasheet" "https://datasheet.lcsc.com/lcsc/1811061717_STMicroelectronics-STM32F030C8T6_C23922.pdf" (id 3) (at 233.68 102.87 0)
      (effects (font (size 1.27 1.27)) hide)
    )
    (pin "1" (uuid 5f4902a6-74bf-47ef-a293-2c9abd875c83))
    (pin "10" (uuid 61fd64be-b239-48b7-8d9f-bd505ba8e318))
    (pin "11" (uuid bdb073a7-fa12-4af5-be42-7f673da22376))
    (pin "12" (uuid 7c095183-8e07-4e17-ae84-e580554024d4))
    (pin "13" (uuid 9833426e-0ff8-43c6-a4e7-b39447fcc7ca))
    (pin "14" (uuid 85dc916e-b9a3-4788-beac-8afbabceecbd))
    (pin "15" (uuid a40fcaf9-bd09-4a90-8c01-e4068cba6c6e))
    (pin "16" (uuid a91f734d-6940-4554-80ab-8c8c1e3c6763))
    (pin "17" (uuid 45625b00-7ed5-499b-873f-0703e3b79ab9))
    (pin "18" (uuid 6971ee58-ea5b-409e-b186-4f0fb0fd2e42))
    (pin "19" (uuid 2b301642-6c8e-419f-9c03-d237ef0581a6))
    (pin "2" (uuid 5d2f2985-0936-4728-be6f-164dd2b9ae7c))
    (pin "20" (uuid 6b37461d-8943-4ca7-941d-4dc261fd29d6))
    (pin "21" (uuid 6870709a-75e5-4a3c-99a5-06530a48e1d6))
    (pin "22" (uuid 19d7f7f9-ceb9-42ed-8555-adee58b35695))
    (pin "23" (uuid b4f8e7c8-28e7-4c88-b48b-f1e970737622))
    (pin "24" (uuid 9f81d13b-5a22-4d36-b63d-3787c4d05749))
    (pin "25" (uuid dfe4e069-2a24-4ac0-80c3-5c6751d2ee86))
    (pin "26" (uuid b0a8ff3f-af3a-4a15-a48f-bd0d8d80aafd))
    (pin "27" (uuid c75cf445-45af-4564-a43e-09911019f64f))
    (pin "28" (uuid 7a040d1b-8534-4086-b92d-a7264d72015f))
    (pin "29" (uuid 2d0de9fb-d263-40a3-a4b8-534699f8dc00))
    (pin "3" (uuid 1c2ea9fe-7994-4d54-8c25-e76362d5382e))
    (pin "30" (uuid 3e5d48f5-435e-42d1-ab23-e56f92a77133))
    (pin "31" (uuid 4fbc4438-b68d-4ded-88fb-f402c6aa2440))
    (pin "32" (uuid 56401bec-2ea1-461f-a5df-2756e2c70da6))
    (pin "33" (uuid 8b633cc4-2385-4a93-a83f-a009e3b55d0a))
    (pin "34" (uuid ceef37e8-a745-41d3-ac73-d4b68df49c0a))
    (pin "35" (uuid 5871a86b-1d60-4fc8-97c1-e7cbd570fcf1))
    (pin "36" (uuid 0035e2d2-8793-453d-a023-3e16c93d3d99))
    (pin "37" (uuid 883bf8cf-7f2b-4917-8ebc-891d2794b254))
    (pin "38" (uuid 77ec581b-ac42-4f07-946d-86ab3e977e11))
    (pin "39" (uuid 494b16cc-6678-44dd-b13f-79281c946bc7))
    (pin "4" (uuid 567ff1ea-cc6c-4876-bbca-507551b0ef0d))
    (pin "40" (uuid d7ea25ce-bbce-47ca-a3fe-e26e9f16ad66))
    (pin "41" (uuid 8c65126e-0074-4985-b47c-303d48587c1d))
    (pin "42" (uuid e5a6839d-9af3-446b-8871-b07b1e677ef4))
    (pin "43" (uuid 353860f1-22d8-419d-8ec5-73470f0e3b1c))
    (pin "44" (uuid 7374a92b-bda1-4068-a96a-e9ecf5ce9403))
    (pin "45" (uuid dad3b53c-32ed-448f-9dcc-aed38b63577c))
    (pin "46" (uuid 5a694028-428f-4c06-8924-1739e55517e0))
    (pin "47" (uuid 5afc9146-7d89-44fa-a891-75a2f8b47e25))
    (pin "48" (uuid 2a56e4ec-cb5d-4a39-82ed-3f6d9d1a4a48))
    (pin "5" (uuid 9f30d2b0-3ba8-4ded-bae2-7ef1f8755438))
    (pin "6" (uuid 91a2dc15-a1cf-48c7-9c68-ae805d51dc7d))
    (pin "7" (uuid 539bb6b8-8826-4f0d-acd3-bb4f08f691d4))
    (pin "8" (uuid e6cb85a9-5ff8-40bc-934e-27ba2bb71058))
    (pin "9" (uuid b7897cf3-3dd7-40fc-8db6-91a00d57666d))
  )

  (symbol (lib_id "Memory_EEPROM:M24C02-WMN") (at 185.42 142.24 0) (mirror x) (unit 1)
    (in_bom yes) (on_board yes) (fields_autoplaced)
    (uuid f78361cd-7d60-4058-aef8-6e928488fcce)
    (property "Reference" "U2" (id 0) (at 187.4394 132.08 0)
      (effects (font (size 1.27 1.27)) (justify left))
    )
    (property "Value" "M24C02-WMN6TP" (id 1) (at 187.4394 134.62 0)
      (effects (font (size 1.27 1.27)) (justify left))
    )
    (property "Footprint" "Package_SO:SOIC-8_3.9x4.9mm_P1.27mm" (id 2) (at 185.42 151.13 0)
      (effects (font (size 1.27 1.27)) hide)
    )
    (property "Datasheet" "https://datasheet.lcsc.com/lcsc/1809061818_STMicroelectronics-M24C02-WMN6TP_C7562.pdf" (id 3) (at 186.69 129.54 0)
      (effects (font (size 1.27 1.27)) hide)
    )
    (pin "1" (uuid d82fa791-5c20-4b95-89da-bf3efe63299c))
    (pin "2" (uuid d859b1d0-89df-48be-ba35-b245b65f032d))
    (pin "3" (uuid 2681f23c-084b-4c83-9ff9-9c514b71c236))
    (pin "4" (uuid 498706cf-109e-4832-b6bf-b122b9668c73))
    (pin "5" (uuid 8c46e66a-5e85-4d21-960b-aa49a672abc5))
    (pin "6" (uuid 5acd7023-9452-409d-b9e7-1aae30378dfa))
    (pin "7" (uuid e6450aaf-aaf1-4eb1-8ebd-37306e0c1ce9))
    (pin "8" (uuid 66ff8d09-5b88-4b25-8aca-9cfed36c2910))
  )

  (sheet_instances
    (path "/" (page "1"))
  )

  (symbol_instances
    (path "/4176cbad-421c-48d2-8592-8f8ebab45c69"
      (reference "U1") (unit 1) (value "STM32F030C8T6") (footprint "Package_QFP:LQFP-48_7x7mm_P0.5mm")
    )
    (path "/f78361cd-7d60-4058-aef8-6e928488fcce"
      (reference "U2") (unit 1) (value "M24C02-WMN6TP") (footprint "Package_SO:SOIC-8_3.9x4.9mm_P1.27mm")
    )
  )
)
