(kicad_sch (version 20211123) (generator eeschema)

  (uuid 9538e4ed-27e6-4c37-b989-9859dc0d49e8)

  (paper "A4")

  (title_block
    (title "UVLO Schematic")
    (date "2022-03-10")
    (comment 1 "Author: Mbasa Mguguma")
    (comment 2 "This is the UVLO schematic ")
    (comment 3 "This circuit is for battery protection")
  )

  (lib_symbols
    (symbol "Amplifier_Operational:LM358" (pin_names (offset 0.127)) (in_bom yes) (on_board yes)
      (property "Reference" "U" (id 0) (at 0 5.08 0)
        (effects (font (size 1.27 1.27)) (justify left))
      )
      (property "Value" "LM358" (id 1) (at 0 -5.08 0)
        (effects (font (size 1.27 1.27)) (justify left))
      )
      (property "Footprint" "" (id 2) (at 0 0 0)
        (effects (font (size 1.27 1.27)) hide)
      )
      (property "Datasheet" "http://www.ti.com/lit/ds/symlink/lm2904-n.pdf" (id 3) (at 0 0 0)
        (effects (font (size 1.27 1.27)) hide)
      )
      (property "ki_locked" "" (id 4) (at 0 0 0)
        (effects (font (size 1.27 1.27)))
      )
      (property "ki_keywords" "dual opamp" (id 5) (at 0 0 0)
        (effects (font (size 1.27 1.27)) hide)
      )
      (property "ki_description" "Low-Power, Dual Operational Amplifiers, DIP-8/SOIC-8/TO-99-8" (id 6) (at 0 0 0)
        (effects (font (size 1.27 1.27)) hide)
      )
      (property "ki_fp_filters" "SOIC*3.9x4.9mm*P1.27mm* DIP*W7.62mm* TO*99* OnSemi*Micro8* TSSOP*3x3mm*P0.65mm* TSSOP*4.4x3mm*P0.65mm* MSOP*3x3mm*P0.65mm* SSOP*3.9x4.9mm*P0.635mm* LFCSP*2x2mm*P0.5mm* *SIP* SOIC*5.3x6.2mm*P1.27mm*" (id 7) (at 0 0 0)
        (effects (font (size 1.27 1.27)) hide)
      )
      (symbol "LM358_1_1"
        (polyline
          (pts
            (xy -5.08 5.08)
            (xy 5.08 0)
            (xy -5.08 -5.08)
            (xy -5.08 5.08)
          )
          (stroke (width 0.254) (type default) (color 0 0 0 0))
          (fill (type background))
        )
        (pin output line (at 7.62 0 180) (length 2.54)
          (name "~" (effects (font (size 1.27 1.27))))
          (number "1" (effects (font (size 1.27 1.27))))
        )
        (pin input line (at -7.62 -2.54 0) (length 2.54)
          (name "-" (effects (font (size 1.27 1.27))))
          (number "2" (effects (font (size 1.27 1.27))))
        )
        (pin input line (at -7.62 2.54 0) (length 2.54)
          (name "+" (effects (font (size 1.27 1.27))))
          (number "3" (effects (font (size 1.27 1.27))))
        )
      )
      (symbol "LM358_2_1"
        (polyline
          (pts
            (xy -5.08 5.08)
            (xy 5.08 0)
            (xy -5.08 -5.08)
            (xy -5.08 5.08)
          )
          (stroke (width 0.254) (type default) (color 0 0 0 0))
          (fill (type background))
        )
        (pin input line (at -7.62 2.54 0) (length 2.54)
          (name "+" (effects (font (size 1.27 1.27))))
          (number "5" (effects (font (size 1.27 1.27))))
        )
        (pin input line (at -7.62 -2.54 0) (length 2.54)
          (name "-" (effects (font (size 1.27 1.27))))
          (number "6" (effects (font (size 1.27 1.27))))
        )
        (pin output line (at 7.62 0 180) (length 2.54)
          (name "~" (effects (font (size 1.27 1.27))))
          (number "7" (effects (font (size 1.27 1.27))))
        )
      )
      (symbol "LM358_3_1"
        (pin power_in line (at -2.54 -7.62 90) (length 3.81)
          (name "V-" (effects (font (size 1.27 1.27))))
          (number "4" (effects (font (size 1.27 1.27))))
        )
        (pin power_in line (at -2.54 7.62 270) (length 3.81)
          (name "V+" (effects (font (size 1.27 1.27))))
          (number "8" (effects (font (size 1.27 1.27))))
        )
      )
    )
    (symbol "Device:D_Zener" (pin_numbers hide) (pin_names (offset 1.016) hide) (in_bom yes) (on_board yes)
      (property "Reference" "D" (id 0) (at 0 2.54 0)
        (effects (font (size 1.27 1.27)))
      )
      (property "Value" "D_Zener" (id 1) (at 0 -2.54 0)
        (effects (font (size 1.27 1.27)))
      )
      (property "Footprint" "" (id 2) (at 0 0 0)
        (effects (font (size 1.27 1.27)) hide)
      )
      (property "Datasheet" "~" (id 3) (at 0 0 0)
        (effects (font (size 1.27 1.27)) hide)
      )
      (property "ki_keywords" "diode" (id 4) (at 0 0 0)
        (effects (font (size 1.27 1.27)) hide)
      )
      (property "ki_description" "Zener diode" (id 5) (at 0 0 0)
        (effects (font (size 1.27 1.27)) hide)
      )
      (property "ki_fp_filters" "TO-???* *_Diode_* *SingleDiode* D_*" (id 6) (at 0 0 0)
        (effects (font (size 1.27 1.27)) hide)
      )
      (symbol "D_Zener_0_1"
        (polyline
          (pts
            (xy 1.27 0)
            (xy -1.27 0)
          )
          (stroke (width 0) (type default) (color 0 0 0 0))
          (fill (type none))
        )
        (polyline
          (pts
            (xy -1.27 -1.27)
            (xy -1.27 1.27)
            (xy -0.762 1.27)
          )
          (stroke (width 0.254) (type default) (color 0 0 0 0))
          (fill (type none))
        )
        (polyline
          (pts
            (xy 1.27 -1.27)
            (xy 1.27 1.27)
            (xy -1.27 0)
            (xy 1.27 -1.27)
          )
          (stroke (width 0.254) (type default) (color 0 0 0 0))
          (fill (type none))
        )
      )
      (symbol "D_Zener_1_1"
        (pin passive line (at -3.81 0 0) (length 2.54)
          (name "K" (effects (font (size 1.27 1.27))))
          (number "1" (effects (font (size 1.27 1.27))))
        )
        (pin passive line (at 3.81 0 180) (length 2.54)
          (name "A" (effects (font (size 1.27 1.27))))
          (number "2" (effects (font (size 1.27 1.27))))
        )
      )
    )
    (symbol "Device:R_Small" (pin_numbers hide) (pin_names (offset 0.254) hide) (in_bom yes) (on_board yes)
      (property "Reference" "R" (id 0) (at 0.762 0.508 0)
        (effects (font (size 1.27 1.27)) (justify left))
      )
      (property "Value" "R_Small" (id 1) (at 0.762 -1.016 0)
        (effects (font (size 1.27 1.27)) (justify left))
      )
      (property "Footprint" "" (id 2) (at 0 0 0)
        (effects (font (size 1.27 1.27)) hide)
      )
      (property "Datasheet" "~" (id 3) (at 0 0 0)
        (effects (font (size 1.27 1.27)) hide)
      )
      (property "ki_keywords" "R resistor" (id 4) (at 0 0 0)
        (effects (font (size 1.27 1.27)) hide)
      )
      (property "ki_description" "Resistor, small symbol" (id 5) (at 0 0 0)
        (effects (font (size 1.27 1.27)) hide)
      )
      (property "ki_fp_filters" "R_*" (id 6) (at 0 0 0)
        (effects (font (size 1.27 1.27)) hide)
      )
      (symbol "R_Small_0_1"
        (rectangle (start -0.762 1.778) (end 0.762 -1.778)
          (stroke (width 0.2032) (type default) (color 0 0 0 0))
          (fill (type none))
        )
      )
      (symbol "R_Small_1_1"
        (pin passive line (at 0 2.54 270) (length 0.762)
          (name "~" (effects (font (size 1.27 1.27))))
          (number "1" (effects (font (size 1.27 1.27))))
        )
        (pin passive line (at 0 -2.54 90) (length 0.762)
          (name "~" (effects (font (size 1.27 1.27))))
          (number "2" (effects (font (size 1.27 1.27))))
        )
      )
    )
    (symbol "power:GND" (power) (pin_names (offset 0)) (in_bom yes) (on_board yes)
      (property "Reference" "#PWR" (id 0) (at 0 -6.35 0)
        (effects (font (size 1.27 1.27)) hide)
      )
      (property "Value" "GND" (id 1) (at 0 -3.81 0)
        (effects (font (size 1.27 1.27)))
      )
      (property "Footprint" "" (id 2) (at 0 0 0)
        (effects (font (size 1.27 1.27)) hide)
      )
      (property "Datasheet" "" (id 3) (at 0 0 0)
        (effects (font (size 1.27 1.27)) hide)
      )
      (property "ki_keywords" "power-flag" (id 4) (at 0 0 0)
        (effects (font (size 1.27 1.27)) hide)
      )
      (property "ki_description" "Power symbol creates a global label with name \"GND\" , ground" (id 5) (at 0 0 0)
        (effects (font (size 1.27 1.27)) hide)
      )
      (symbol "GND_0_1"
        (polyline
          (pts
            (xy 0 0)
            (xy 0 -1.27)
            (xy 1.27 -1.27)
            (xy 0 -2.54)
            (xy -1.27 -1.27)
            (xy 0 -1.27)
          )
          (stroke (width 0) (type default) (color 0 0 0 0))
          (fill (type none))
        )
      )
      (symbol "GND_1_1"
        (pin power_in line (at 0 0 270) (length 0) hide
          (name "GND" (effects (font (size 1.27 1.27))))
          (number "1" (effects (font (size 1.27 1.27))))
        )
      )
    )
    (symbol "pspice:MPMOS" (pin_names (offset 0)) (in_bom yes) (on_board yes)
      (property "Reference" "M" (id 0) (at 7.62 1.27 0)
        (effects (font (size 1.27 1.27)) (justify left))
      )
      (property "Value" "MPMOS" (id 1) (at 7.62 -1.27 0)
        (effects (font (size 1.27 1.27)) (justify left))
      )
      (property "Footprint" "" (id 2) (at 0 0 0)
        (effects (font (size 1.27 1.27)) hide)
      )
      (property "Datasheet" "~" (id 3) (at 0 0 0)
        (effects (font (size 1.27 1.27)) hide)
      )
      (property "ki_keywords" "mosfet pmos simulation" (id 4) (at 0 0 0)
        (effects (font (size 1.27 1.27)) hide)
      )
      (property "ki_description" "P-channel MOSFET symbol for simulation only" (id 5) (at 0 0 0)
        (effects (font (size 1.27 1.27)) hide)
      )
      (symbol "MPMOS_0_1"
        (polyline
          (pts
            (xy -1.27 2.54)
            (xy -1.27 -2.54)
          )
          (stroke (width 0) (type default) (color 0 0 0 0))
          (fill (type none))
        )
        (polyline
          (pts
            (xy -0.635 -2.54)
            (xy 2.54 -2.54)
          )
          (stroke (width 0) (type default) (color 0 0 0 0))
          (fill (type none))
        )
        (polyline
          (pts
            (xy 2.54 2.54)
            (xy -0.635 2.54)
          )
          (stroke (width 0) (type default) (color 0 0 0 0))
          (fill (type none))
        )
        (polyline
          (pts
            (xy 5.08 0)
            (xy -0.635 0)
          )
          (stroke (width 0) (type default) (color 0 0 0 0))
          (fill (type none))
        )
        (polyline
          (pts
            (xy 5.08 0)
            (xy 3.175 0.635)
            (xy 3.175 -0.635)
            (xy 5.08 0)
          )
          (stroke (width 0) (type default) (color 0 0 0 0))
          (fill (type outline))
        )
      )
      (symbol "MPMOS_1_1"
        (polyline
          (pts
            (xy -0.635 -2.54)
            (xy -0.635 2.54)
          )
          (stroke (width 0) (type default) (color 0 0 0 0))
          (fill (type none))
        )
        (pin passive line (at 2.54 -5.08 90) (length 2.54)
          (name "D" (effects (font (size 1.27 1.27))))
          (number "1" (effects (font (size 1.27 1.27))))
        )
        (pin input line (at -5.08 0 0) (length 3.81)
          (name "G" (effects (font (size 1.27 1.27))))
          (number "2" (effects (font (size 1.27 1.27))))
        )
        (pin passive line (at 2.54 5.08 270) (length 2.54)
          (name "S" (effects (font (size 1.27 1.27))))
          (number "3" (effects (font (size 1.27 1.27))))
        )
        (pin input line (at 5.08 5.08 270) (length 5.08)
          (name "B" (effects (font (size 1.27 1.27))))
          (number "4" (effects (font (size 1.27 1.27))))
        )
      )
    )
  )

  (junction (at 105.41 128.27) (diameter 0) (color 0 0 0 0)
    (uuid 235cf23f-90d4-4aec-8cca-4406ba079cf8)
  )
  (junction (at 170.18 154.94) (diameter 0) (color 0 0 0 0)
    (uuid 4175396c-57ac-4c0b-999d-b4a27af8f7cb)
  )
  (junction (at 193.04 130.81) (diameter 0) (color 0 0 0 0)
    (uuid 6b4b5f7c-a806-48f4-95ef-3248ad773206)
  )
  (junction (at 138.43 146.05) (diameter 0) (color 0 0 0 0)
    (uuid 774a97af-c565-458c-9996-2b5e96384a17)
  )
  (junction (at 138.43 133.35) (diameter 0) (color 0 0 0 0)
    (uuid ab9bfea3-bc76-41b9-9afe-b25298d2f506)
  )
  (junction (at 138.43 154.94) (diameter 0) (color 0 0 0 0)
    (uuid ca16243a-1de6-457a-ad4a-84ad886be4d9)
  )
  (junction (at 138.43 105.41) (diameter 0) (color 0 0 0 0)
    (uuid f152437b-2125-4e69-bc62-93c789d91396)
  )
  (junction (at 187.96 105.41) (diameter 0) (color 0 0 0 0)
    (uuid f3edb4af-beb8-4418-ad89-966c47dc2394)
  )

  (wire (pts (xy 138.43 133.35) (xy 165.1 133.35))
    (stroke (width 0) (type default) (color 0 0 0 0))
    (uuid 4a84bf2b-e8bd-4cb2-a0bc-ea7a66ebc4b5)
  )
  (wire (pts (xy 217.17 105.41) (xy 217.17 124.46))
    (stroke (width 0) (type default) (color 0 0 0 0))
    (uuid 50bde68b-f1ed-4ccc-b5f5-92921e1eb64b)
  )
  (wire (pts (xy 138.43 154.94) (xy 105.41 154.94))
    (stroke (width 0) (type default) (color 0 0 0 0))
    (uuid 5120f83f-e7a2-4903-b8cd-b5493b0e572c)
  )
  (wire (pts (xy 165.1 128.27) (xy 105.41 128.27))
    (stroke (width 0) (type default) (color 0 0 0 0))
    (uuid 542602fb-6012-41ae-95dd-ac4a9c258d38)
  )
  (wire (pts (xy 138.43 115.57) (xy 138.43 105.41))
    (stroke (width 0) (type default) (color 0 0 0 0))
    (uuid 54bd5519-2151-4041-9398-1783a4ff0785)
  )
  (wire (pts (xy 138.43 120.65) (xy 138.43 133.35))
    (stroke (width 0) (type default) (color 0 0 0 0))
    (uuid 62580710-8024-4045-aa79-68d29a997e72)
  )
  (wire (pts (xy 138.43 133.35) (xy 138.43 135.89))
    (stroke (width 0) (type default) (color 0 0 0 0))
    (uuid 62d97f1f-8468-4bb2-970d-385d2b805bbb)
  )
  (wire (pts (xy 193.04 113.03) (xy 193.04 118.11))
    (stroke (width 0) (type default) (color 0 0 0 0))
    (uuid 741208bf-f5d8-418c-9313-63d2c7111340)
  )
  (wire (pts (xy 193.04 123.19) (xy 193.04 130.81))
    (stroke (width 0) (type default) (color 0 0 0 0))
    (uuid 7760d77c-f38d-4f3b-8fbc-4d38361ab915)
  )
  (wire (pts (xy 105.41 110.49) (xy 105.41 105.41))
    (stroke (width 0) (type default) (color 0 0 0 0))
    (uuid 78fed693-0fff-4fb1-8556-81212f10a81d)
  )
  (wire (pts (xy 105.41 128.27) (xy 105.41 149.86))
    (stroke (width 0) (type default) (color 0 0 0 0))
    (uuid 7a9301a7-6d1c-4502-a1d3-acc3ecdc30f2)
  )
  (wire (pts (xy 138.43 143.51) (xy 138.43 146.05))
    (stroke (width 0) (type default) (color 0 0 0 0))
    (uuid 868abc64-756e-4eea-8714-163e172d4ddc)
  )
  (wire (pts (xy 105.41 115.57) (xy 105.41 128.27))
    (stroke (width 0) (type default) (color 0 0 0 0))
    (uuid 88d6be80-c709-4d68-a550-325387c47330)
  )
  (wire (pts (xy 170.18 154.94) (xy 138.43 154.94))
    (stroke (width 0) (type default) (color 0 0 0 0))
    (uuid a0f273e7-5863-4ceb-94e3-530accd29260)
  )
  (wire (pts (xy 217.17 129.54) (xy 217.17 154.94))
    (stroke (width 0) (type default) (color 0 0 0 0))
    (uuid a8aea28c-e417-4589-8240-7402f33e970f)
  )
  (wire (pts (xy 198.12 105.41) (xy 217.17 105.41))
    (stroke (width 0) (type default) (color 0 0 0 0))
    (uuid b1d49c49-266a-471a-a4b8-05c14dd287b1)
  )
  (wire (pts (xy 187.96 102.87) (xy 187.96 105.41))
    (stroke (width 0) (type default) (color 0 0 0 0))
    (uuid b4a6a9e2-aca1-4ad6-821a-5fc367ab5e9a)
  )
  (wire (pts (xy 105.41 105.41) (xy 138.43 105.41))
    (stroke (width 0) (type default) (color 0 0 0 0))
    (uuid b56a95e7-9fe3-4b77-8873-34a7a81eba79)
  )
  (wire (pts (xy 193.04 146.05) (xy 138.43 146.05))
    (stroke (width 0) (type default) (color 0 0 0 0))
    (uuid b5c5c7b5-0de1-4004-b46d-223aecc1f4d4)
  )
  (wire (pts (xy 217.17 154.94) (xy 170.18 154.94))
    (stroke (width 0) (type default) (color 0 0 0 0))
    (uuid c1ca22e6-0614-475e-b4fd-ecdb012bbcd0)
  )
  (wire (pts (xy 138.43 146.05) (xy 138.43 149.86))
    (stroke (width 0) (type default) (color 0 0 0 0))
    (uuid d0ae5f5a-881d-42e3-ac70-cac89130e42f)
  )
  (wire (pts (xy 180.34 130.81) (xy 193.04 130.81))
    (stroke (width 0) (type default) (color 0 0 0 0))
    (uuid d3a94572-ba0e-4c08-8346-1b6ae4b86c0b)
  )
  (wire (pts (xy 193.04 130.81) (xy 193.04 140.97))
    (stroke (width 0) (type default) (color 0 0 0 0))
    (uuid f0db94fd-1ae0-44e9-a536-115581e1e6d0)
  )
  (wire (pts (xy 138.43 105.41) (xy 187.96 105.41))
    (stroke (width 0) (type default) (color 0 0 0 0))
    (uuid f4559cf8-b443-4df3-b335-21420fe4970e)
  )

  (label "Vout" (at 217.17 105.41 0)
    (effects (font (size 1.27 1.27)) (justify left bottom))
    (uuid 30fccceb-2915-47fb-9148-347a573a84a6)
  )
  (label "Vin" (at 105.41 105.41 0)
    (effects (font (size 1.27 1.27)) (justify left bottom))
    (uuid 799620fb-e829-4576-9a60-18e6c880ef3a)
  )

  (symbol (lib_id "Amplifier_Operational:LM358") (at 172.72 130.81 0) (mirror x) (unit 1)
    (in_bom yes) (on_board yes) (fields_autoplaced)
    (uuid 086a188d-c66c-4364-989b-3b7c99cb4552)
    (property "Reference" "U1" (id 0) (at 172.72 120.65 0))
    (property "Value" "LM358" (id 1) (at 172.72 123.19 0))
    (property "Footprint" "" (id 2) (at 172.72 130.81 0)
      (effects (font (size 1.27 1.27)) hide)
    )
    (property "Datasheet" "http://www.ti.com/lit/ds/symlink/lm2904-n.pdf" (id 3) (at 172.72 130.81 0)
      (effects (font (size 1.27 1.27)) hide)
    )
    (pin "1" (uuid 22d1cb52-3c30-4061-81a2-4dbd6df53711))
    (pin "2" (uuid 0c043047-d7dc-4ff7-838f-065c72cb777f))
    (pin "3" (uuid c99d9f9b-3f6a-41f1-87d9-8787d80efdee))
  )

  (symbol (lib_id "Device:R_Small") (at 138.43 152.4 0) (unit 1)
    (in_bom yes) (on_board yes) (fields_autoplaced)
    (uuid 3af4b349-344b-43c5-8e87-1c2b93feaf3b)
    (property "Reference" "R18" (id 0) (at 140.97 151.1299 0)
      (effects (font (size 1.27 1.27)) (justify left))
    )
    (property "Value" "150k" (id 1) (at 140.97 153.6699 0)
      (effects (font (size 1.27 1.27)) (justify left))
    )
    (property "Footprint" "" (id 2) (at 138.43 152.4 0)
      (effects (font (size 1.27 1.27)) hide)
    )
    (property "Datasheet" "~" (id 3) (at 138.43 152.4 0)
      (effects (font (size 1.27 1.27)) hide)
    )
    (pin "1" (uuid b7970770-556b-466d-b73b-119610574956))
    (pin "2" (uuid 3695fcbb-06f6-4ce7-a9d7-a47e3f047ac1))
  )

  (symbol (lib_id "Device:R_Small") (at 138.43 118.11 0) (unit 1)
    (in_bom yes) (on_board yes) (fields_autoplaced)
    (uuid 772ba6e9-c3ad-430c-9307-0ed5cf951309)
    (property "Reference" "R17" (id 0) (at 140.97 116.8399 0)
      (effects (font (size 1.27 1.27)) (justify left))
    )
    (property "Value" "2M" (id 1) (at 140.97 119.3799 0)
      (effects (font (size 1.27 1.27)) (justify left))
    )
    (property "Footprint" "" (id 2) (at 138.43 118.11 0)
      (effects (font (size 1.27 1.27)) hide)
    )
    (property "Datasheet" "~" (id 3) (at 138.43 118.11 0)
      (effects (font (size 1.27 1.27)) hide)
    )
    (pin "1" (uuid 517e2697-2641-49aa-881a-adf574434f3d))
    (pin "2" (uuid 84d9cede-2890-4974-95bc-54ae525a48f9))
  )

  (symbol (lib_id "pspice:MPMOS") (at 193.04 107.95 90) (unit 1)
    (in_bom yes) (on_board yes) (fields_autoplaced)
    (uuid 8d92d5bc-8103-4e66-a930-49030a303d86)
    (property "Reference" "M1" (id 0) (at 193.04 97.79 90))
    (property "Value" "AO06401A" (id 1) (at 193.04 100.33 90))
    (property "Footprint" "" (id 2) (at 193.04 107.95 0)
      (effects (font (size 1.27 1.27)) hide)
    )
    (property "Datasheet" "https://datasheet.lcsc.com/szlcsc/1912111437_Alpha-Omega-Semicon-AO6401A_C102604.pdf" (id 3) (at 193.04 107.95 0)
      (effects (font (size 1.27 1.27)) hide)
    )
    (pin "1" (uuid cd7b1fe6-28c8-4f62-9350-34073d8fa22e))
    (pin "2" (uuid f54f6724-370d-4b8c-88c2-788059863adc))
    (pin "3" (uuid 232ac21b-fd66-42a8-8e13-d11a085348b6))
    (pin "4" (uuid cb1bcf91-c7d8-4f42-aec9-8a12549e7011))
  )

  (symbol (lib_id "Device:R_Small") (at 193.04 143.51 0) (unit 1)
    (in_bom yes) (on_board yes) (fields_autoplaced)
    (uuid a85efca9-488d-4b51-9df5-fe4b7fc900c5)
    (property "Reference" "R20" (id 0) (at 195.58 142.2399 0)
      (effects (font (size 1.27 1.27)) (justify left))
    )
    (property "Value" "10M" (id 1) (at 195.58 144.7799 0)
      (effects (font (size 1.27 1.27)) (justify left))
    )
    (property "Footprint" "" (id 2) (at 193.04 143.51 0)
      (effects (font (size 1.27 1.27)) hide)
    )
    (property "Datasheet" "~" (id 3) (at 193.04 143.51 0)
      (effects (font (size 1.27 1.27)) hide)
    )
    (pin "1" (uuid 59c78634-831a-4b32-8233-3d67c3ff49ff))
    (pin "2" (uuid e7c5df7a-6d48-4487-aec1-346368ae3571))
  )

  (symbol (lib_id "Device:R_Small") (at 217.17 127 0) (unit 1)
    (in_bom yes) (on_board yes) (fields_autoplaced)
    (uuid b03152b5-e407-4f26-a1a9-f4fc1670c2d2)
    (property "Reference" "R21" (id 0) (at 219.71 125.7299 0)
      (effects (font (size 1.27 1.27)) (justify left))
    )
    (property "Value" "100K" (id 1) (at 219.71 128.2699 0)
      (effects (font (size 1.27 1.27)) (justify left))
    )
    (property "Footprint" "" (id 2) (at 217.17 127 0)
      (effects (font (size 1.27 1.27)) hide)
    )
    (property "Datasheet" "~" (id 3) (at 217.17 127 0)
      (effects (font (size 1.27 1.27)) hide)
    )
    (pin "1" (uuid 22ec142d-dd8e-422e-9e28-8e29da427d0b))
    (pin "2" (uuid bd7a643b-8093-426a-b8e2-6ec4d5392224))
  )

  (symbol (lib_id "Device:R_Small") (at 105.41 152.4 0) (unit 1)
    (in_bom yes) (on_board yes) (fields_autoplaced)
    (uuid b449a538-f2ad-4af5-b67c-17d8eb209bdc)
    (property "Reference" "R16" (id 0) (at 107.95 151.1299 0)
      (effects (font (size 1.27 1.27)) (justify left))
    )
    (property "Value" "3M" (id 1) (at 107.95 153.6699 0)
      (effects (font (size 1.27 1.27)) (justify left))
    )
    (property "Footprint" "" (id 2) (at 105.41 152.4 0)
      (effects (font (size 1.27 1.27)) hide)
    )
    (property "Datasheet" "~" (id 3) (at 105.41 152.4 0)
      (effects (font (size 1.27 1.27)) hide)
    )
    (pin "1" (uuid 28eff98c-b113-41e2-b955-7c189a7e5a60))
    (pin "2" (uuid 73f84fa1-ef3d-4a6a-8ff7-1123555b2e4a))
  )

  (symbol (lib_id "power:GND") (at 170.18 154.94 0) (unit 1)
    (in_bom yes) (on_board yes) (fields_autoplaced)
    (uuid b4bd14d3-cfb7-4a33-8f48-35277bd565a9)
    (property "Reference" "#PWR?" (id 0) (at 170.18 161.29 0)
      (effects (font (size 1.27 1.27)) hide)
    )
    (property "Value" "GND" (id 1) (at 170.18 160.02 0))
    (property "Footprint" "" (id 2) (at 170.18 154.94 0)
      (effects (font (size 1.27 1.27)) hide)
    )
    (property "Datasheet" "" (id 3) (at 170.18 154.94 0)
      (effects (font (size 1.27 1.27)) hide)
    )
    (pin "1" (uuid 78f564e1-4c07-4e03-8c6a-06442a34c45b))
  )

  (symbol (lib_id "Device:D_Zener") (at 138.43 139.7 270) (unit 1)
    (in_bom yes) (on_board yes) (fields_autoplaced)
    (uuid bf9991e8-fc16-4694-b39d-43072d40de22)
    (property "Reference" "D1" (id 0) (at 140.97 138.4299 90)
      (effects (font (size 1.27 1.27)) (justify left))
    )
    (property "Value" "ZMM3V3-M" (id 1) (at 140.97 140.9699 90)
      (effects (font (size 1.27 1.27)) (justify left))
    )
    (property "Footprint" "" (id 2) (at 138.43 139.7 0)
      (effects (font (size 1.27 1.27)) hide)
    )
    (property "Datasheet" "https://datasheet.lcsc.com/lcsc/1811142211_ST-Semtech-ZMM3V3-M_C8056.pdf" (id 3) (at 138.43 139.7 0)
      (effects (font (size 1.27 1.27)) hide)
    )
    (pin "1" (uuid daf5d86f-28c9-49bd-8e60-92cedfda44bd))
    (pin "2" (uuid 1f20ba8a-dacc-4fc6-9c02-80cdb80415f0))
  )

  (symbol (lib_id "Device:R_Small") (at 105.41 113.03 0) (unit 1)
    (in_bom yes) (on_board yes) (fields_autoplaced)
    (uuid db259837-d3cd-40f1-b733-1ff085c1a40f)
    (property "Reference" "R15" (id 0) (at 107.95 111.7599 0)
      (effects (font (size 1.27 1.27)) (justify left))
    )
    (property "Value" "3.6M" (id 1) (at 107.95 114.2999 0)
      (effects (font (size 1.27 1.27)) (justify left))
    )
    (property "Footprint" "" (id 2) (at 105.41 113.03 0)
      (effects (font (size 1.27 1.27)) hide)
    )
    (property "Datasheet" "~" (id 3) (at 105.41 113.03 0)
      (effects (font (size 1.27 1.27)) hide)
    )
    (pin "1" (uuid fca95917-0397-4be5-b153-d267a80d4f34))
    (pin "2" (uuid f876d823-c221-479f-b914-caf808535f8b))
  )

  (symbol (lib_id "Device:R_Small") (at 193.04 120.65 0) (unit 1)
    (in_bom yes) (on_board yes) (fields_autoplaced)
    (uuid f55cf286-d42e-4fb3-952d-a656ddba4706)
    (property "Reference" "R19" (id 0) (at 195.58 119.3799 0)
      (effects (font (size 1.27 1.27)) (justify left))
    )
    (property "Value" "1M" (id 1) (at 195.58 121.9199 0)
      (effects (font (size 1.27 1.27)) (justify left))
    )
    (property "Footprint" "" (id 2) (at 193.04 120.65 0)
      (effects (font (size 1.27 1.27)) hide)
    )
    (property "Datasheet" "~" (id 3) (at 193.04 120.65 0)
      (effects (font (size 1.27 1.27)) hide)
    )
    (pin "1" (uuid acefb981-8e19-4968-95ce-47897ceece83))
    (pin "2" (uuid 01ec8ae6-f274-4568-96b3-71eff23e7bd0))
  )

  (sheet_instances
    (path "/" (page "1"))
  )

  (symbol_instances
    (path "/b4bd14d3-cfb7-4a33-8f48-35277bd565a9"
      (reference "#PWR?") (unit 1) (value "GND") (footprint "")
    )
    (path "/bf9991e8-fc16-4694-b39d-43072d40de22"
      (reference "D1") (unit 1) (value "ZMM3V3-M") (footprint "")
    )
    (path "/8d92d5bc-8103-4e66-a930-49030a303d86"
      (reference "M1") (unit 1) (value "AO06401A") (footprint "")
    )
    (path "/db259837-d3cd-40f1-b733-1ff085c1a40f"
      (reference "R15") (unit 1) (value "3.6M") (footprint "")
    )
    (path "/b449a538-f2ad-4af5-b67c-17d8eb209bdc"
      (reference "R16") (unit 1) (value "3M") (footprint "")
    )
    (path "/772ba6e9-c3ad-430c-9307-0ed5cf951309"
      (reference "R17") (unit 1) (value "2M") (footprint "")
    )
    (path "/3af4b349-344b-43c5-8e87-1c2b93feaf3b"
      (reference "R18") (unit 1) (value "150k") (footprint "")
    )
    (path "/f55cf286-d42e-4fb3-952d-a656ddba4706"
      (reference "R19") (unit 1) (value "1M") (footprint "")
    )
    (path "/a85efca9-488d-4b51-9df5-fe4b7fc900c5"
      (reference "R20") (unit 1) (value "10M") (footprint "")
    )
    (path "/b03152b5-e407-4f26-a1a9-f4fc1670c2d2"
      (reference "R21") (unit 1) (value "100K") (footprint "")
    )
    (path "/086a188d-c66c-4364-989b-3b7c99cb4552"
      (reference "U1") (unit 1) (value "LM358") (footprint "")
    )
  )
)
