(kicad_sch (version 20211123) (generator eeschema)

  (uuid ae78189d-79c7-41a0-b77c-3bb766898352)

  (paper "A4")

  (title_block
    (title "Sensor Submodule Schematic")
    (date "2022-03-10")
    (rev "2")
    (company "Author : Kayuran Naicker")
  )

  (lib_symbols
    (symbol "Connector:TestPoint" (pin_numbers hide) (pin_names (offset 0.762) hide) (in_bom yes) (on_board yes)
      (property "Reference" "TP" (id 0) (at 0 6.858 0)
        (effects (font (size 1.27 1.27)))
      )
      (property "Value" "TestPoint" (id 1) (at 0 5.08 0)
        (effects (font (size 1.27 1.27)))
      )
      (property "Footprint" "" (id 2) (at 5.08 0 0)
        (effects (font (size 1.27 1.27)) hide)
      )
      (property "Datasheet" "~" (id 3) (at 5.08 0 0)
        (effects (font (size 1.27 1.27)) hide)
      )
      (property "ki_keywords" "test point tp" (id 4) (at 0 0 0)
        (effects (font (size 1.27 1.27)) hide)
      )
      (property "ki_description" "test point" (id 5) (at 0 0 0)
        (effects (font (size 1.27 1.27)) hide)
      )
      (property "ki_fp_filters" "Pin* Test*" (id 6) (at 0 0 0)
        (effects (font (size 1.27 1.27)) hide)
      )
      (symbol "TestPoint_0_1"
        (circle (center 0 3.302) (radius 0.762)
          (stroke (width 0) (type default) (color 0 0 0 0))
          (fill (type none))
        )
      )
      (symbol "TestPoint_1_1"
        (pin passive line (at 0 0 90) (length 2.54)
          (name "1" (effects (font (size 1.27 1.27))))
          (number "1" (effects (font (size 1.27 1.27))))
        )
      )
    )
    (symbol "Device:C" (pin_numbers hide) (pin_names (offset 0.254)) (in_bom yes) (on_board yes)
      (property "Reference" "C" (id 0) (at 0.635 2.54 0)
        (effects (font (size 1.27 1.27)) (justify left))
      )
      (property "Value" "C" (id 1) (at 0.635 -2.54 0)
        (effects (font (size 1.27 1.27)) (justify left))
      )
      (property "Footprint" "" (id 2) (at 0.9652 -3.81 0)
        (effects (font (size 1.27 1.27)) hide)
      )
      (property "Datasheet" "~" (id 3) (at 0 0 0)
        (effects (font (size 1.27 1.27)) hide)
      )
      (property "ki_keywords" "cap capacitor" (id 4) (at 0 0 0)
        (effects (font (size 1.27 1.27)) hide)
      )
      (property "ki_description" "Unpolarized capacitor" (id 5) (at 0 0 0)
        (effects (font (size 1.27 1.27)) hide)
      )
      (property "ki_fp_filters" "C_*" (id 6) (at 0 0 0)
        (effects (font (size 1.27 1.27)) hide)
      )
      (symbol "C_0_1"
        (polyline
          (pts
            (xy -2.032 -0.762)
            (xy 2.032 -0.762)
          )
          (stroke (width 0.508) (type default) (color 0 0 0 0))
          (fill (type none))
        )
        (polyline
          (pts
            (xy -2.032 0.762)
            (xy 2.032 0.762)
          )
          (stroke (width 0.508) (type default) (color 0 0 0 0))
          (fill (type none))
        )
      )
      (symbol "C_1_1"
        (pin passive line (at 0 3.81 270) (length 2.794)
          (name "~" (effects (font (size 1.27 1.27))))
          (number "1" (effects (font (size 1.27 1.27))))
        )
        (pin passive line (at 0 -3.81 90) (length 2.794)
          (name "~" (effects (font (size 1.27 1.27))))
          (number "2" (effects (font (size 1.27 1.27))))
        )
      )
    )
    (symbol "Device:R" (pin_numbers hide) (pin_names (offset 0)) (in_bom yes) (on_board yes)
      (property "Reference" "R" (id 0) (at 2.032 0 90)
        (effects (font (size 1.27 1.27)))
      )
      (property "Value" "R" (id 1) (at 0 0 90)
        (effects (font (size 1.27 1.27)))
      )
      (property "Footprint" "" (id 2) (at -1.778 0 90)
        (effects (font (size 1.27 1.27)) hide)
      )
      (property "Datasheet" "~" (id 3) (at 0 0 0)
        (effects (font (size 1.27 1.27)) hide)
      )
      (property "ki_keywords" "R res resistor" (id 4) (at 0 0 0)
        (effects (font (size 1.27 1.27)) hide)
      )
      (property "ki_description" "Resistor" (id 5) (at 0 0 0)
        (effects (font (size 1.27 1.27)) hide)
      )
      (property "ki_fp_filters" "R_*" (id 6) (at 0 0 0)
        (effects (font (size 1.27 1.27)) hide)
      )
      (symbol "R_0_1"
        (rectangle (start -1.016 -2.54) (end 1.016 2.54)
          (stroke (width 0.254) (type default) (color 0 0 0 0))
          (fill (type none))
        )
      )
      (symbol "R_1_1"
        (pin passive line (at 0 3.81 270) (length 1.27)
          (name "~" (effects (font (size 1.27 1.27))))
          (number "1" (effects (font (size 1.27 1.27))))
        )
        (pin passive line (at 0 -3.81 90) (length 1.27)
          (name "~" (effects (font (size 1.27 1.27))))
          (number "2" (effects (font (size 1.27 1.27))))
        )
      )
    )
    (symbol "Device:R_Small" (pin_numbers hide) (pin_names (offset 0.254) hide) (in_bom yes) (on_board yes)
      (property "Reference" "R" (id 0) (at 0.762 0.508 0)
        (effects (font (size 1.27 1.27)) (justify left))
      )
      (property "Value" "R_Small" (id 1) (at 0.762 -1.016 0)
        (effects (font (size 1.27 1.27)) (justify left))
      )
      (property "Footprint" "" (id 2) (at 0 0 0)
        (effects (font (size 1.27 1.27)) hide)
      )
      (property "Datasheet" "~" (id 3) (at 0 0 0)
        (effects (font (size 1.27 1.27)) hide)
      )
      (property "ki_keywords" "R resistor" (id 4) (at 0 0 0)
        (effects (font (size 1.27 1.27)) hide)
      )
      (property "ki_description" "Resistor, small symbol" (id 5) (at 0 0 0)
        (effects (font (size 1.27 1.27)) hide)
      )
      (property "ki_fp_filters" "R_*" (id 6) (at 0 0 0)
        (effects (font (size 1.27 1.27)) hide)
      )
      (symbol "R_Small_0_1"
        (rectangle (start -0.762 1.778) (end 0.762 -1.778)
          (stroke (width 0.2032) (type default) (color 0 0 0 0))
          (fill (type none))
        )
      )
      (symbol "R_Small_1_1"
        (pin passive line (at 0 2.54 270) (length 0.762)
          (name "~" (effects (font (size 1.27 1.27))))
          (number "1" (effects (font (size 1.27 1.27))))
        )
        (pin passive line (at 0 -2.54 90) (length 0.762)
          (name "~" (effects (font (size 1.27 1.27))))
          (number "2" (effects (font (size 1.27 1.27))))
        )
      )
    )
    (symbol "Sensor_Optical:LDR03" (pin_numbers hide) (pin_names (offset 0)) (in_bom yes) (on_board yes)
      (property "Reference" "R" (id 0) (at -5.08 0 90)
        (effects (font (size 1.27 1.27)))
      )
      (property "Value" "LDR03" (id 1) (at 1.905 0 90)
        (effects (font (size 1.27 1.27)) (justify top))
      )
      (property "Footprint" "OptoDevice:R_LDR_10x8.5mm_P7.6mm_Vertical" (id 2) (at 4.445 0 90)
        (effects (font (size 1.27 1.27)) hide)
      )
      (property "Datasheet" "http://www.elektronica-componenten.nl/WebRoot/StoreNL/Shops/61422969/54F1/BA0C/C664/31B9/2173/C0A8/2AB9/2AEF/LDR03IMP.pdf" (id 3) (at 0 -1.27 0)
        (effects (font (size 1.27 1.27)) hide)
      )
      (property "ki_keywords" "light dependent photo resistor LDR" (id 4) (at 0 0 0)
        (effects (font (size 1.27 1.27)) hide)
      )
      (property "ki_description" "light dependent resistor" (id 5) (at 0 0 0)
        (effects (font (size 1.27 1.27)) hide)
      )
      (property "ki_fp_filters" "R*LDR*10x8.5mm*P7.6mm*" (id 6) (at 0 0 0)
        (effects (font (size 1.27 1.27)) hide)
      )
      (symbol "LDR03_0_1"
        (rectangle (start -1.016 2.54) (end 1.016 -2.54)
          (stroke (width 0.254) (type default) (color 0 0 0 0))
          (fill (type none))
        )
        (polyline
          (pts
            (xy -1.524 -2.286)
            (xy -4.064 0.254)
          )
          (stroke (width 0) (type default) (color 0 0 0 0))
          (fill (type none))
        )
        (polyline
          (pts
            (xy -1.524 -2.286)
            (xy -2.286 -2.286)
          )
          (stroke (width 0) (type default) (color 0 0 0 0))
          (fill (type none))
        )
        (polyline
          (pts
            (xy -1.524 -2.286)
            (xy -1.524 -1.524)
          )
          (stroke (width 0) (type default) (color 0 0 0 0))
          (fill (type none))
        )
        (polyline
          (pts
            (xy -1.524 -0.762)
            (xy -4.064 1.778)
          )
          (stroke (width 0) (type default) (color 0 0 0 0))
          (fill (type none))
        )
        (polyline
          (pts
            (xy -1.524 -0.762)
            (xy -2.286 -0.762)
          )
          (stroke (width 0) (type default) (color 0 0 0 0))
          (fill (type none))
        )
        (polyline
          (pts
            (xy -1.524 -0.762)
            (xy -1.524 0)
          )
          (stroke (width 0) (type default) (color 0 0 0 0))
          (fill (type none))
        )
      )
      (symbol "LDR03_1_1"
        (pin passive line (at 0 3.81 270) (length 1.27)
          (name "~" (effects (font (size 1.27 1.27))))
          (number "1" (effects (font (size 1.27 1.27))))
        )
        (pin passive line (at 0 -3.81 90) (length 1.27)
          (name "~" (effects (font (size 1.27 1.27))))
          (number "2" (effects (font (size 1.27 1.27))))
        )
      )
    )
    (symbol "Sensor_Temperature:DS18B20" (pin_names (offset 1.016)) (in_bom yes) (on_board yes)
      (property "Reference" "U" (id 0) (at -3.81 6.35 0)
        (effects (font (size 1.27 1.27)))
      )
      (property "Value" "DS18B20" (id 1) (at 6.35 6.35 0)
        (effects (font (size 1.27 1.27)))
      )
      (property "Footprint" "Package_TO_SOT_THT:TO-92_Inline" (id 2) (at -25.4 -6.35 0)
        (effects (font (size 1.27 1.27)) hide)
      )
      (property "Datasheet" "http://datasheets.maximintegrated.com/en/ds/DS18B20.pdf" (id 3) (at -3.81 6.35 0)
        (effects (font (size 1.27 1.27)) hide)
      )
      (property "ki_keywords" "OneWire 1Wire Dallas Maxim" (id 4) (at 0 0 0)
        (effects (font (size 1.27 1.27)) hide)
      )
      (property "ki_description" "Programmable Resolution 1-Wire Digital Thermometer TO-92" (id 5) (at 0 0 0)
        (effects (font (size 1.27 1.27)) hide)
      )
      (property "ki_fp_filters" "TO*92*" (id 6) (at 0 0 0)
        (effects (font (size 1.27 1.27)) hide)
      )
      (symbol "DS18B20_0_1"
        (rectangle (start -5.08 5.08) (end 5.08 -5.08)
          (stroke (width 0.254) (type default) (color 0 0 0 0))
          (fill (type background))
        )
        (circle (center -3.302 -2.54) (radius 1.27)
          (stroke (width 0.254) (type default) (color 0 0 0 0))
          (fill (type outline))
        )
        (rectangle (start -2.667 -1.905) (end -3.937 0)
          (stroke (width 0.254) (type default) (color 0 0 0 0))
          (fill (type outline))
        )
        (arc (start -2.667 3.175) (mid -3.302 3.81) (end -3.937 3.175)
          (stroke (width 0.254) (type default) (color 0 0 0 0))
          (fill (type none))
        )
        (polyline
          (pts
            (xy -3.937 0.635)
            (xy -3.302 0.635)
          )
          (stroke (width 0.254) (type default) (color 0 0 0 0))
          (fill (type none))
        )
        (polyline
          (pts
            (xy -3.937 1.27)
            (xy -3.302 1.27)
          )
          (stroke (width 0.254) (type default) (color 0 0 0 0))
          (fill (type none))
        )
        (polyline
          (pts
            (xy -3.937 1.905)
            (xy -3.302 1.905)
          )
          (stroke (width 0.254) (type default) (color 0 0 0 0))
          (fill (type none))
        )
        (polyline
          (pts
            (xy -3.937 2.54)
            (xy -3.302 2.54)
          )
          (stroke (width 0.254) (type default) (color 0 0 0 0))
          (fill (type none))
        )
        (polyline
          (pts
            (xy -3.937 3.175)
            (xy -3.937 0)
          )
          (stroke (width 0.254) (type default) (color 0 0 0 0))
          (fill (type none))
        )
        (polyline
          (pts
            (xy -3.937 3.175)
            (xy -3.302 3.175)
          )
          (stroke (width 0.254) (type default) (color 0 0 0 0))
          (fill (type none))
        )
        (polyline
          (pts
            (xy -2.667 3.175)
            (xy -2.667 0)
          )
          (stroke (width 0.254) (type default) (color 0 0 0 0))
          (fill (type none))
        )
      )
      (symbol "DS18B20_1_1"
        (pin power_in line (at 0 -7.62 90) (length 2.54)
          (name "GND" (effects (font (size 1.27 1.27))))
          (number "1" (effects (font (size 1.27 1.27))))
        )
        (pin bidirectional line (at 7.62 0 180) (length 2.54)
          (name "DQ" (effects (font (size 1.27 1.27))))
          (number "2" (effects (font (size 1.27 1.27))))
        )
        (pin power_in line (at 0 7.62 270) (length 2.54)
          (name "VDD" (effects (font (size 1.27 1.27))))
          (number "3" (effects (font (size 1.27 1.27))))
        )
      )
    )
    (symbol "power:GND" (power) (pin_names (offset 0)) (in_bom yes) (on_board yes)
      (property "Reference" "#PWR" (id 0) (at 0 -6.35 0)
        (effects (font (size 1.27 1.27)) hide)
      )
      (property "Value" "GND" (id 1) (at 0 -3.81 0)
        (effects (font (size 1.27 1.27)))
      )
      (property "Footprint" "" (id 2) (at 0 0 0)
        (effects (font (size 1.27 1.27)) hide)
      )
      (property "Datasheet" "" (id 3) (at 0 0 0)
        (effects (font (size 1.27 1.27)) hide)
      )
      (property "ki_keywords" "power-flag" (id 4) (at 0 0 0)
        (effects (font (size 1.27 1.27)) hide)
      )
      (property "ki_description" "Power symbol creates a global label with name \"GND\" , ground" (id 5) (at 0 0 0)
        (effects (font (size 1.27 1.27)) hide)
      )
      (symbol "GND_0_1"
        (polyline
          (pts
            (xy 0 0)
            (xy 0 -1.27)
            (xy 1.27 -1.27)
            (xy 0 -2.54)
            (xy -1.27 -1.27)
            (xy 0 -1.27)
          )
          (stroke (width 0) (type default) (color 0 0 0 0))
          (fill (type none))
        )
      )
      (symbol "GND_1_1"
        (pin power_in line (at 0 0 270) (length 0) hide
          (name "GND" (effects (font (size 1.27 1.27))))
          (number "1" (effects (font (size 1.27 1.27))))
        )
      )
    )
  )

  (junction (at 180.34 95.25) (diameter 0) (color 0 0 0 0)
    (uuid 017d5483-d6f4-47ad-b029-f1fdbeddcb75)
  )
  (junction (at 158.75 115.57) (diameter 0) (color 0 0 0 0)
    (uuid 25d8adab-0a15-4020-99bd-0750c3d143f4)
  )
  (junction (at 105.41 96.52) (diameter 0) (color 0 0 0 0)
    (uuid 2c1ed742-8829-4c33-b03a-5cadaf6aebc7)
  )
  (junction (at 143.51 66.04) (diameter 0) (color 0 0 0 0)
    (uuid 3740663a-1f88-4a74-aaaa-f50e42b0e812)
  )
  (junction (at 148.59 133.35) (diameter 0) (color 0 0 0 0)
    (uuid 50473d75-7668-4bb7-b779-3baf343577f1)
  )
  (junction (at 148.59 105.41) (diameter 0) (color 0 0 0 0)
    (uuid 69ce9d1b-ef1a-4fb1-85ad-5c3f6ca839b1)
  )
  (junction (at 168.91 115.57) (diameter 0) (color 0 0 0 0)
    (uuid 6ac5d7cb-e1da-4a7f-a608-d428d03e40c4)
  )
  (junction (at 124.46 87.63) (diameter 0) (color 0 0 0 0)
    (uuid 6f896584-0720-4ae8-8231-bd6b6d49d09d)
  )
  (junction (at 143.51 68.58) (diameter 0) (color 0 0 0 0)
    (uuid 76300f94-2a35-4337-ae87-be70e0ef1e3e)
  )
  (junction (at 137.16 133.35) (diameter 0) (color 0 0 0 0)
    (uuid 7c90c241-4745-4774-bee5-bbe7189685b6)
  )
  (junction (at 96.52 106.68) (diameter 0) (color 0 0 0 0)
    (uuid 85aa1934-5479-49ac-84c5-59f6f729bf47)
  )
  (junction (at 124.46 133.35) (diameter 0) (color 0 0 0 0)
    (uuid 966c8a36-b5d2-471e-b2ac-5b9aa4ff76f6)
  )
  (junction (at 137.16 95.25) (diameter 0) (color 0 0 0 0)
    (uuid a9a0200e-41ca-4015-befa-d07a0a861060)
  )
  (junction (at 148.59 68.58) (diameter 0) (color 0 0 0 0)
    (uuid b0e29baf-0e8f-4366-8749-61dc6d5905dd)
  )
  (junction (at 105.41 133.35) (diameter 0) (color 0 0 0 0)
    (uuid b3955e1c-9220-40f3-a187-6a710e61b4dc)
  )
  (junction (at 124.46 68.58) (diameter 0) (color 0 0 0 0)
    (uuid c5445877-209e-4d08-9598-73540ba21b2b)
  )
  (junction (at 186.69 87.63) (diameter 0) (color 0 0 0 0)
    (uuid c581f008-d90f-4214-8c97-859c2e470b9a)
  )
  (junction (at 96.52 82.55) (diameter 0) (color 0 0 0 0)
    (uuid cbcf0e2e-d51d-435d-aa4e-5fb8e8d47809)
  )
  (junction (at 143.51 133.35) (diameter 0) (color 0 0 0 0)
    (uuid d45a0696-f017-4736-bff8-4f1dc9eab584)
  )
  (junction (at 175.26 105.41) (diameter 0) (color 0 0 0 0)
    (uuid e1623e1d-2c23-4056-a78e-7b5be4ad9842)
  )
  (junction (at 137.16 68.58) (diameter 0) (color 0 0 0 0)
    (uuid e7d1fd1b-8d99-4724-8093-3ffa4942ad21)
  )
  (junction (at 111.76 133.35) (diameter 0) (color 0 0 0 0)
    (uuid ec5a072c-e07e-4421-b522-c97ff81d94f8)
  )

  (wire (pts (xy 158.75 127) (xy 158.75 133.35))
    (stroke (width 0) (type default) (color 0 0 0 0))
    (uuid 0369b251-2140-446f-96ce-616d804881a6)
  )
  (wire (pts (xy 137.16 68.58) (xy 143.51 68.58))
    (stroke (width 0) (type default) (color 0 0 0 0))
    (uuid 12dfda1e-ac00-4ee3-9148-ec9814c89405)
  )
  (wire (pts (xy 137.16 95.25) (xy 137.16 119.38))
    (stroke (width 0) (type default) (color 0 0 0 0))
    (uuid 15a1ec30-e452-4b99-8261-a8e4672514d7)
  )
  (wire (pts (xy 148.59 105.41) (xy 148.59 119.38))
    (stroke (width 0) (type default) (color 0 0 0 0))
    (uuid 20f35cc0-1580-48a8-b70c-16e5bc5ea38b)
  )
  (wire (pts (xy 124.46 133.35) (xy 137.16 133.35))
    (stroke (width 0) (type default) (color 0 0 0 0))
    (uuid 2267dee8-1f1a-4fde-b3a9-dccd648a9c19)
  )
  (wire (pts (xy 111.76 68.58) (xy 124.46 68.58))
    (stroke (width 0) (type default) (color 0 0 0 0))
    (uuid 22e512bd-7f90-4af2-931a-8b076805a970)
  )
  (wire (pts (xy 72.39 106.68) (xy 96.52 106.68))
    (stroke (width 0) (type default) (color 0 0 0 0))
    (uuid 2a54a6e7-bb36-43ca-a6f6-78eff0b07673)
  )
  (wire (pts (xy 158.75 133.35) (xy 148.59 133.35))
    (stroke (width 0) (type default) (color 0 0 0 0))
    (uuid 2af1c0b7-698f-4d5e-bb91-1a7555c531db)
  )
  (wire (pts (xy 180.34 95.25) (xy 191.77 95.25))
    (stroke (width 0) (type default) (color 0 0 0 0))
    (uuid 2b84dcef-45d4-4e1e-b3ca-f21027ccd962)
  )
  (wire (pts (xy 137.16 82.55) (xy 137.16 95.25))
    (stroke (width 0) (type default) (color 0 0 0 0))
    (uuid 3c7e5b35-dcc6-4cdb-afd9-18114a8362cd)
  )
  (wire (pts (xy 143.51 64.77) (xy 143.51 66.04))
    (stroke (width 0) (type default) (color 0 0 0 0))
    (uuid 4086c956-4f64-4de4-905f-2da4b8bf14a1)
  )
  (wire (pts (xy 96.52 82.55) (xy 72.39 82.55))
    (stroke (width 0) (type default) (color 0 0 0 0))
    (uuid 45ad7f60-1586-4f9d-8d3f-b30fe236e006)
  )
  (wire (pts (xy 148.59 105.41) (xy 175.26 105.41))
    (stroke (width 0) (type default) (color 0 0 0 0))
    (uuid 497be43a-d71a-481f-8ca5-69833d52ea3a)
  )
  (wire (pts (xy 111.76 68.58) (xy 111.76 82.55))
    (stroke (width 0) (type default) (color 0 0 0 0))
    (uuid 4d79f395-044a-420b-8624-875d42b2413b)
  )
  (wire (pts (xy 143.51 133.35) (xy 143.51 138.43))
    (stroke (width 0) (type default) (color 0 0 0 0))
    (uuid 4e30e05c-738a-48fd-888e-fc138a606855)
  )
  (wire (pts (xy 111.76 133.35) (xy 124.46 133.35))
    (stroke (width 0) (type default) (color 0 0 0 0))
    (uuid 5881408a-55e2-49c7-85df-a387c777ba1a)
  )
  (wire (pts (xy 143.51 66.04) (xy 143.51 68.58))
    (stroke (width 0) (type default) (color 0 0 0 0))
    (uuid 5a9b350e-9884-4e5c-b699-d5b1805dac4f)
  )
  (wire (pts (xy 148.59 127) (xy 148.59 133.35))
    (stroke (width 0) (type default) (color 0 0 0 0))
    (uuid 6ccb8509-0a28-45b8-9448-0b3d320723fb)
  )
  (wire (pts (xy 96.52 104.14) (xy 96.52 106.68))
    (stroke (width 0) (type default) (color 0 0 0 0))
    (uuid 6e2824a6-1b1d-4072-9aaa-c31eb8fe7f98)
  )
  (wire (pts (xy 143.51 66.04) (xy 96.52 66.04))
    (stroke (width 0) (type default) (color 0 0 0 0))
    (uuid 717f85a0-732b-4341-9df1-4463edc8e6a3)
  )
  (wire (pts (xy 96.52 66.04) (xy 96.52 82.55))
    (stroke (width 0) (type default) (color 0 0 0 0))
    (uuid 7739b9bb-d118-4563-8010-ccd6c9327a1b)
  )
  (wire (pts (xy 124.46 87.63) (xy 186.69 87.63))
    (stroke (width 0) (type default) (color 0 0 0 0))
    (uuid 814f6998-03fd-4f29-94bb-1757c67783a4)
  )
  (wire (pts (xy 96.52 106.68) (xy 96.52 133.35))
    (stroke (width 0) (type default) (color 0 0 0 0))
    (uuid 8367fac3-44c2-44e9-b65c-ef96f0a06eba)
  )
  (wire (pts (xy 111.76 133.35) (xy 105.41 133.35))
    (stroke (width 0) (type default) (color 0 0 0 0))
    (uuid 86e3fae2-9d14-48a1-930f-29ac469b5d13)
  )
  (wire (pts (xy 148.59 133.35) (xy 143.51 133.35))
    (stroke (width 0) (type default) (color 0 0 0 0))
    (uuid 89001eb4-07b7-400a-a300-d352c9682a39)
  )
  (wire (pts (xy 158.75 68.58) (xy 158.75 74.93))
    (stroke (width 0) (type default) (color 0 0 0 0))
    (uuid 8ba43bc7-168a-4f28-8002-1e9117688357)
  )
  (wire (pts (xy 137.16 127) (xy 137.16 133.35))
    (stroke (width 0) (type default) (color 0 0 0 0))
    (uuid 8cb58381-bc76-43ee-a4ee-d6a8375292e7)
  )
  (wire (pts (xy 158.75 82.55) (xy 158.75 115.57))
    (stroke (width 0) (type default) (color 0 0 0 0))
    (uuid 96223134-452d-4f85-819e-d686a4d56c91)
  )
  (wire (pts (xy 109.22 96.52) (xy 105.41 96.52))
    (stroke (width 0) (type default) (color 0 0 0 0))
    (uuid 964a53ef-22a6-4d2c-af9d-5ecb6249176a)
  )
  (wire (pts (xy 143.51 138.43) (xy 147.32 138.43))
    (stroke (width 0) (type default) (color 0 0 0 0))
    (uuid 9e68bc71-d1eb-4180-855f-350fb77c52cb)
  )
  (wire (pts (xy 72.39 99.06) (xy 72.39 106.68))
    (stroke (width 0) (type default) (color 0 0 0 0))
    (uuid a0d0e88b-2288-4d73-a22f-08ead85f16ff)
  )
  (wire (pts (xy 175.26 105.41) (xy 191.77 105.41))
    (stroke (width 0) (type default) (color 0 0 0 0))
    (uuid a38d2864-4020-4e7c-91b1-750d06adc302)
  )
  (wire (pts (xy 105.41 96.52) (xy 104.14 96.52))
    (stroke (width 0) (type default) (color 0 0 0 0))
    (uuid a88a4421-1517-410e-94ae-d2e430fea893)
  )
  (wire (pts (xy 137.16 95.25) (xy 180.34 95.25))
    (stroke (width 0) (type default) (color 0 0 0 0))
    (uuid ae99474d-6108-4d7b-8df4-6abb57a35da5)
  )
  (wire (pts (xy 143.51 68.58) (xy 148.59 68.58))
    (stroke (width 0) (type default) (color 0 0 0 0))
    (uuid b70dcfa8-fb00-4f5f-9c9d-f62dedd6511e)
  )
  (wire (pts (xy 148.59 68.58) (xy 158.75 68.58))
    (stroke (width 0) (type default) (color 0 0 0 0))
    (uuid c271d9a7-8777-477b-99ce-cacbb6314cf0)
  )
  (wire (pts (xy 124.46 82.55) (xy 124.46 87.63))
    (stroke (width 0) (type default) (color 0 0 0 0))
    (uuid c33413e6-fb25-4a45-b35a-510da5418259)
  )
  (wire (pts (xy 137.16 68.58) (xy 137.16 74.93))
    (stroke (width 0) (type default) (color 0 0 0 0))
    (uuid c39806eb-5f48-4121-bf47-8687e86f159b)
  )
  (wire (pts (xy 148.59 82.55) (xy 148.59 105.41))
    (stroke (width 0) (type default) (color 0 0 0 0))
    (uuid c84eaf9d-5abe-4349-8093-0970633b0a50)
  )
  (wire (pts (xy 137.16 133.35) (xy 143.51 133.35))
    (stroke (width 0) (type default) (color 0 0 0 0))
    (uuid c9b0fec4-41aa-458b-8f1f-4cc7522f9112)
  )
  (wire (pts (xy 111.76 90.17) (xy 111.76 133.35))
    (stroke (width 0) (type default) (color 0 0 0 0))
    (uuid cec33b49-9395-4c21-badf-dba65e111c57)
  )
  (wire (pts (xy 124.46 127) (xy 124.46 133.35))
    (stroke (width 0) (type default) (color 0 0 0 0))
    (uuid d0fffaf1-e5db-48d7-a15d-ffaaf89f9ecf)
  )
  (wire (pts (xy 186.69 87.63) (xy 191.77 87.63))
    (stroke (width 0) (type default) (color 0 0 0 0))
    (uuid d3e76516-4a7e-405e-8808-3c4ce4b6cca4)
  )
  (wire (pts (xy 105.41 118.11) (xy 105.41 133.35))
    (stroke (width 0) (type default) (color 0 0 0 0))
    (uuid d612e10b-10ac-4e3c-97e1-96b3a3576bb8)
  )
  (wire (pts (xy 72.39 82.55) (xy 72.39 91.44))
    (stroke (width 0) (type default) (color 0 0 0 0))
    (uuid d70eb992-a3ff-45e5-ae81-cf2be9ff4b1c)
  )
  (wire (pts (xy 105.41 133.35) (xy 96.52 133.35))
    (stroke (width 0) (type default) (color 0 0 0 0))
    (uuid df8f57d9-728d-4c7c-8044-9660a269eaa6)
  )
  (wire (pts (xy 124.46 68.58) (xy 137.16 68.58))
    (stroke (width 0) (type default) (color 0 0 0 0))
    (uuid e5d67857-ec13-477b-b8c1-831111b86c01)
  )
  (wire (pts (xy 158.75 115.57) (xy 158.75 119.38))
    (stroke (width 0) (type default) (color 0 0 0 0))
    (uuid e71180d0-a416-466f-b131-4db60af8bb67)
  )
  (wire (pts (xy 105.41 96.52) (xy 105.41 110.49))
    (stroke (width 0) (type default) (color 0 0 0 0))
    (uuid ec0f5844-f204-416c-9c5e-13e6c8644a7e)
  )
  (wire (pts (xy 168.91 115.57) (xy 191.77 115.57))
    (stroke (width 0) (type default) (color 0 0 0 0))
    (uuid ec3c78ba-64a5-44f6-8bef-e267e41b7578)
  )
  (wire (pts (xy 143.51 54.61) (xy 143.51 59.69))
    (stroke (width 0) (type default) (color 0 0 0 0))
    (uuid ee8ae312-5aff-4bdb-b5c3-eaa94a2ee382)
  )
  (wire (pts (xy 96.52 82.55) (xy 96.52 88.9))
    (stroke (width 0) (type default) (color 0 0 0 0))
    (uuid f5e024b6-82f6-46d0-acbf-5de97aec7f4e)
  )
  (wire (pts (xy 158.75 115.57) (xy 168.91 115.57))
    (stroke (width 0) (type default) (color 0 0 0 0))
    (uuid f6449993-9ffc-48a6-9933-ec7e3d4d7acc)
  )
  (wire (pts (xy 148.59 68.58) (xy 148.59 74.93))
    (stroke (width 0) (type default) (color 0 0 0 0))
    (uuid f85a0b17-e856-40ce-b954-33d45078b382)
  )
  (wire (pts (xy 124.46 87.63) (xy 124.46 119.38))
    (stroke (width 0) (type default) (color 0 0 0 0))
    (uuid fa9cd2c0-412c-4dd3-b28c-b785c296a773)
  )
  (wire (pts (xy 124.46 68.58) (xy 124.46 74.93))
    (stroke (width 0) (type default) (color 0 0 0 0))
    (uuid fb7db9f6-9b5c-43a7-af44-ec895cc518ca)
  )

  (hierarchical_label "PA8" (shape output) (at 191.77 95.25 0)
    (effects (font (size 1.27 1.27) bold) (justify left))
    (uuid 0ee49b70-506f-4aab-bd49-2dde02739057)
  )
  (hierarchical_label "PA6" (shape output) (at 191.77 87.63 0)
    (effects (font (size 1.27 1.27) bold) (justify left))
    (uuid 33b02239-47cb-4a7d-afa6-4025f0f231ac)
  )
  (hierarchical_label "PA2" (shape output) (at 191.77 105.41 0)
    (effects (font (size 1.27 1.27) bold) (justify left))
    (uuid 51640562-fcd4-4ab4-82c3-911e549036b7)
  )
  (hierarchical_label "PA15" (shape output) (at 191.77 115.57 0)
    (effects (font (size 1.27 1.27) bold) (justify left))
    (uuid 75dd2eb2-da0c-42a2-9032-6e7356d76357)
  )
  (hierarchical_label "PA4" (shape output) (at 109.22 96.52 0)
    (effects (font (size 1.27 1.27)) (justify left))
    (uuid b2b0e3e5-3193-4b1e-aca1-039400cfef36)
  )
  (hierarchical_label "3V3" (shape input) (at 143.51 54.61 0)
    (effects (font (size 1.27 1.27) bold) (justify left))
    (uuid e8d83d68-96dc-407c-b82c-b39dd013b236)
  )

  (symbol (lib_id "Connector:TestPoint") (at 186.69 87.63 0) (unit 1)
    (in_bom yes) (on_board yes) (fields_autoplaced)
    (uuid 001d24eb-3231-40b9-8dd4-d868441fb891)
    (property "Reference" "TP4" (id 0) (at 189.23 83.0579 0)
      (effects (font (size 1.27 1.27)) (justify left))
    )
    (property "Value" "TestPoint" (id 1) (at 189.23 85.5979 0)
      (effects (font (size 1.27 1.27)) (justify left))
    )
    (property "Footprint" "TestPoint:TestPoint_Pad_D2.0mm" (id 2) (at 191.77 87.63 0)
      (effects (font (size 1.27 1.27)) hide)
    )
    (property "Datasheet" "~" (id 3) (at 191.77 87.63 0)
      (effects (font (size 1.27 1.27)) hide)
    )
    (pin "1" (uuid feb50126-a68e-4301-b369-422f76acb521))
  )

  (symbol (lib_id "Connector:TestPoint") (at 168.91 115.57 0) (unit 1)
    (in_bom yes) (on_board yes) (fields_autoplaced)
    (uuid 08e45632-abc4-408d-afcb-d2938c9c97ad)
    (property "Reference" "TP1" (id 0) (at 171.45 110.9979 0)
      (effects (font (size 1.27 1.27)) (justify left))
    )
    (property "Value" "TestPoint" (id 1) (at 171.45 113.5379 0)
      (effects (font (size 1.27 1.27)) (justify left))
    )
    (property "Footprint" "TestPoint:TestPoint_Pad_D2.0mm" (id 2) (at 173.99 115.57 0)
      (effects (font (size 1.27 1.27)) hide)
    )
    (property "Datasheet" "~" (id 3) (at 173.99 115.57 0)
      (effects (font (size 1.27 1.27)) hide)
    )
    (pin "1" (uuid 1f1e0016-fde0-4da0-b28b-e9d27022b5eb))
  )

  (symbol (lib_id "Connector:TestPoint") (at 180.34 95.25 0) (unit 1)
    (in_bom yes) (on_board yes) (fields_autoplaced)
    (uuid 09eb3ed1-44f4-4795-af4b-041ac647b53a)
    (property "Reference" "TP3" (id 0) (at 182.88 90.6779 0)
      (effects (font (size 1.27 1.27)) (justify left))
    )
    (property "Value" "TestPoint" (id 1) (at 182.88 93.2179 0)
      (effects (font (size 1.27 1.27)) (justify left))
    )
    (property "Footprint" "TestPoint:TestPoint_Pad_D2.0mm" (id 2) (at 185.42 95.25 0)
      (effects (font (size 1.27 1.27)) hide)
    )
    (property "Datasheet" "~" (id 3) (at 185.42 95.25 0)
      (effects (font (size 1.27 1.27)) hide)
    )
    (pin "1" (uuid b179093d-aec7-4ada-af43-49e86f4d6c9b))
  )

  (symbol (lib_id "Device:R") (at 158.75 123.19 0) (unit 1)
    (in_bom yes) (on_board yes) (fields_autoplaced)
    (uuid 0c010a8e-17fa-4881-8f97-74a16f071f37)
    (property "Reference" "R25" (id 0) (at 161.29 121.9199 0)
      (effects (font (size 1.27 1.27)) (justify left))
    )
    (property "Value" "1K" (id 1) (at 161.29 124.4599 0)
      (effects (font (size 1.27 1.27)) (justify left))
    )
    (property "Footprint" "Resistor_SMD:R_1206_3216Metric" (id 2) (at 156.972 123.19 90)
      (effects (font (size 1.27 1.27)) hide)
    )
    (property "Datasheet" "~" (id 3) (at 158.75 123.19 0)
      (effects (font (size 1.27 1.27)) hide)
    )
    (pin "1" (uuid 55cea5d9-1e7d-4725-bcfd-663600c12ef6))
    (pin "2" (uuid 55a1a58d-3641-458b-9f6f-6e3e3b99d4c3))
  )

  (symbol (lib_id "Device:R") (at 124.46 123.19 0) (unit 1)
    (in_bom yes) (on_board yes) (fields_autoplaced)
    (uuid 0d6f8207-fb87-4a97-b9be-10d99461349d)
    (property "Reference" "R18" (id 0) (at 127 121.9199 0)
      (effects (font (size 1.27 1.27)) (justify left))
    )
    (property "Value" "1K" (id 1) (at 127 124.4599 0)
      (effects (font (size 1.27 1.27)) (justify left))
    )
    (property "Footprint" "Resistor_SMD:R_1206_3216Metric" (id 2) (at 122.682 123.19 90)
      (effects (font (size 1.27 1.27)) hide)
    )
    (property "Datasheet" "~" (id 3) (at 124.46 123.19 0)
      (effects (font (size 1.27 1.27)) hide)
    )
    (pin "1" (uuid 8af49d99-fe97-4d5b-bb52-419090fdec80))
    (pin "2" (uuid f306808d-2658-4cf8-bed7-143a3046a5bb))
  )

  (symbol (lib_id "power:GND") (at 147.32 138.43 90) (unit 1)
    (in_bom yes) (on_board yes)
    (uuid 42663ec9-bd8e-4873-af28-f2e800ae073e)
    (property "Reference" "#PWR030" (id 0) (at 153.67 138.43 0)
      (effects (font (size 1.27 1.27)) hide)
    )
    (property "Value" "GND" (id 1) (at 150.5712 138.303 90)
      (effects (font (size 1.27 1.27)) (justify right))
    )
    (property "Footprint" "" (id 2) (at 147.32 138.43 0)
      (effects (font (size 1.27 1.27)) hide)
    )
    (property "Datasheet" "" (id 3) (at 147.32 138.43 0)
      (effects (font (size 1.27 1.27)) hide)
    )
    (pin "1" (uuid 1f75b0f1-b37c-4c9b-9d71-88b9420f6714))
  )

  (symbol (lib_id "Device:C") (at 72.39 95.25 0) (unit 1)
    (in_bom yes) (on_board yes) (fields_autoplaced)
    (uuid 4d843028-f08c-4cdd-bb75-fda5d2ff9e3b)
    (property "Reference" "C3" (id 0) (at 76.2 93.9799 0)
      (effects (font (size 1.27 1.27)) (justify left))
    )
    (property "Value" "10uF" (id 1) (at 76.2 96.5199 0)
      (effects (font (size 1.27 1.27)) (justify left))
    )
    (property "Footprint" "Capacitor_SMD:C_1206_3216Metric" (id 2) (at 73.3552 99.06 0)
      (effects (font (size 1.27 1.27)) hide)
    )
    (property "Datasheet" "~" (id 3) (at 72.39 95.25 0)
      (effects (font (size 1.27 1.27)) hide)
    )
    (pin "1" (uuid c3abfee2-89be-44a8-a893-18e943d98699))
    (pin "2" (uuid a67c7461-8057-4a50-8843-e35b8c7e3efe))
  )

  (symbol (lib_id "Device:R_Small") (at 143.51 62.23 0) (unit 1)
    (in_bom yes) (on_board yes) (fields_autoplaced)
    (uuid 8df74ae1-6564-4064-8088-8aba2f9e91c6)
    (property "Reference" "R21" (id 0) (at 146.05 60.9599 0)
      (effects (font (size 1.27 1.27)) (justify left))
    )
    (property "Value" "0" (id 1) (at 146.05 63.4999 0)
      (effects (font (size 1.27 1.27)) (justify left))
    )
    (property "Footprint" "Resistor_SMD:R_1206_3216Metric" (id 2) (at 143.51 62.23 0)
      (effects (font (size 1.27 1.27)) hide)
    )
    (property "Datasheet" "~" (id 3) (at 143.51 62.23 0)
      (effects (font (size 1.27 1.27)) hide)
    )
    (pin "1" (uuid 7a98d903-0610-4ae6-a16c-2e234d230246))
    (pin "2" (uuid ea4a1189-d89e-49ca-9365-443ab003c951))
  )

  (symbol (lib_id "Connector:TestPoint") (at 175.26 105.41 0) (unit 1)
    (in_bom yes) (on_board yes) (fields_autoplaced)
    (uuid 98449f28-739e-4e00-9ca3-9b7a61f97e6b)
    (property "Reference" "TP2" (id 0) (at 177.8 100.8379 0)
      (effects (font (size 1.27 1.27)) (justify left))
    )
    (property "Value" "TestPoint" (id 1) (at 177.8 103.3779 0)
      (effects (font (size 1.27 1.27)) (justify left))
    )
    (property "Footprint" "TestPoint:TestPoint_Pad_D2.0mm" (id 2) (at 180.34 105.41 0)
      (effects (font (size 1.27 1.27)) hide)
    )
    (property "Datasheet" "~" (id 3) (at 180.34 105.41 0)
      (effects (font (size 1.27 1.27)) hide)
    )
    (pin "1" (uuid 23e3846f-3ebe-4438-84e6-20aa95edd0de))
  )

  (symbol (lib_id "Sensor_Temperature:DS18B20") (at 96.52 96.52 0) (unit 1)
    (in_bom yes) (on_board yes) (fields_autoplaced)
    (uuid a4854744-e56f-4301-b351-3f0aa04da464)
    (property "Reference" "U5" (id 0) (at 90.17 95.2499 0)
      (effects (font (size 1.27 1.27)) (justify right))
    )
    (property "Value" "DS18B20" (id 1) (at 90.17 97.7899 0)
      (effects (font (size 1.27 1.27)) (justify right))
    )
    (property "Footprint" "Package_TO_SOT_THT:TO-92_Inline" (id 2) (at 71.12 102.87 0)
      (effects (font (size 1.27 1.27)) hide)
    )
    (property "Datasheet" "http://datasheets.maximintegrated.com/en/ds/DS18B20.pdf" (id 3) (at 92.71 90.17 0)
      (effects (font (size 1.27 1.27)) hide)
    )
    (pin "1" (uuid b97dcad8-8983-4322-a73e-c6b00229fcff))
    (pin "2" (uuid b4621bf8-e220-48e2-bfc8-40464cfe4443))
    (pin "3" (uuid 5b8f25e4-ddb4-477c-b5fc-c4c5fa680702))
  )

  (symbol (lib_id "Sensor_Optical:LDR03") (at 137.16 78.74 0) (unit 1)
    (in_bom yes) (on_board yes)
    (uuid b2dc811b-2b00-4751-989f-8b074572df38)
    (property "Reference" "R19" (id 0) (at 139.7 77.4699 0)
      (effects (font (size 1.27 1.27)) (justify left))
    )
    (property "Value" "LDR03" (id 1) (at 139.7 80.0099 0)
      (effects (font (size 1.27 1.27)) (justify left))
    )
    (property "Footprint" "OptoDevice:R_LDR_5.1x4.3mm_P3.4mm_Vertical" (id 2) (at 141.605 78.74 90)
      (effects (font (size 1.27 1.27)) hide)
    )
    (property "Datasheet" "http://www.elektronica-componenten.nl/WebRoot/StoreNL/Shops/61422969/54F1/BA0C/C664/31B9/2173/C0A8/2AB9/2AEF/LDR03IMP.pdf" (id 3) (at 137.16 80.01 0)
      (effects (font (size 1.27 1.27)) hide)
    )
    (pin "1" (uuid 5ff4a1c4-02bb-4c07-ae34-961228f15531))
    (pin "2" (uuid 58d4faee-317e-4253-898f-130c65b373f6))
  )

  (symbol (lib_id "Device:C") (at 105.41 114.3 0) (unit 1)
    (in_bom yes) (on_board yes) (fields_autoplaced)
    (uuid b872511a-177e-46a0-9299-e5e438fc8825)
    (property "Reference" "C4" (id 0) (at 109.22 113.0299 0)
      (effects (font (size 1.27 1.27)) (justify left))
    )
    (property "Value" "10uF" (id 1) (at 109.22 115.5699 0)
      (effects (font (size 1.27 1.27)) (justify left))
    )
    (property "Footprint" "Capacitor_SMD:C_1206_3216Metric" (id 2) (at 106.3752 118.11 0)
      (effects (font (size 1.27 1.27)) hide)
    )
    (property "Datasheet" "~" (id 3) (at 105.41 114.3 0)
      (effects (font (size 1.27 1.27)) hide)
    )
    (pin "1" (uuid 53e25655-9641-4a31-bb19-f7ed4c9ffdbe))
    (pin "2" (uuid f7e9e902-c15b-477e-82fb-79d9760ee87b))
  )

  (symbol (lib_id "Device:C") (at 111.76 86.36 0) (unit 1)
    (in_bom yes) (on_board yes) (fields_autoplaced)
    (uuid d1525012-bd27-4dde-b806-2b3a7fcf23e1)
    (property "Reference" "C5" (id 0) (at 115.57 85.0899 0)
      (effects (font (size 1.27 1.27)) (justify left))
    )
    (property "Value" "10uF" (id 1) (at 115.57 87.6299 0)
      (effects (font (size 1.27 1.27)) (justify left))
    )
    (property "Footprint" "Capacitor_SMD:C_1206_3216Metric" (id 2) (at 112.7252 90.17 0)
      (effects (font (size 1.27 1.27)) hide)
    )
    (property "Datasheet" "~" (id 3) (at 111.76 86.36 0)
      (effects (font (size 1.27 1.27)) hide)
    )
    (pin "1" (uuid 943b5a60-c61d-455b-980b-f3e4030c8af7))
    (pin "2" (uuid da997f28-6420-4828-8770-45069f821b4c))
  )

  (symbol (lib_id "Sensor_Optical:LDR03") (at 124.46 78.74 0) (unit 1)
    (in_bom yes) (on_board yes) (fields_autoplaced)
    (uuid d6575e99-e2a5-4a0e-b283-62911ad25b59)
    (property "Reference" "R17" (id 0) (at 127 77.4699 0)
      (effects (font (size 1.27 1.27)) (justify left))
    )
    (property "Value" "LDR03" (id 1) (at 127 80.0099 0)
      (effects (font (size 1.27 1.27)) (justify left))
    )
    (property "Footprint" "OptoDevice:R_LDR_5.1x4.3mm_P3.4mm_Vertical" (id 2) (at 128.905 78.74 90)
      (effects (font (size 1.27 1.27)) hide)
    )
    (property "Datasheet" "http://www.elektronica-componenten.nl/WebRoot/StoreNL/Shops/61422969/54F1/BA0C/C664/31B9/2173/C0A8/2AB9/2AEF/LDR03IMP.pdf" (id 3) (at 124.46 80.01 0)
      (effects (font (size 1.27 1.27)) hide)
    )
    (pin "1" (uuid 79e00fd4-e3de-4524-9417-c5667290f67d))
    (pin "2" (uuid 3f0685ae-aa62-4b5d-9e26-1145d7db41a0))
  )

  (symbol (lib_id "Sensor_Optical:LDR03") (at 148.59 78.74 0) (unit 1)
    (in_bom yes) (on_board yes) (fields_autoplaced)
    (uuid e67569fe-a7de-420c-baba-160254bbdc77)
    (property "Reference" "R22" (id 0) (at 151.13 77.4699 0)
      (effects (font (size 1.27 1.27)) (justify left))
    )
    (property "Value" "LDR03" (id 1) (at 151.13 80.0099 0)
      (effects (font (size 1.27 1.27)) (justify left))
    )
    (property "Footprint" "OptoDevice:R_LDR_5.1x4.3mm_P3.4mm_Vertical" (id 2) (at 153.035 78.74 90)
      (effects (font (size 1.27 1.27)) hide)
    )
    (property "Datasheet" "http://www.elektronica-componenten.nl/WebRoot/StoreNL/Shops/61422969/54F1/BA0C/C664/31B9/2173/C0A8/2AB9/2AEF/LDR03IMP.pdf" (id 3) (at 148.59 80.01 0)
      (effects (font (size 1.27 1.27)) hide)
    )
    (pin "1" (uuid 95b9e628-bcb2-4efe-b9a6-937cc1638849))
    (pin "2" (uuid 4d2d8d89-0803-4f6e-a9e7-0cdd9203d192))
  )

  (symbol (lib_id "Device:R") (at 148.59 123.19 0) (unit 1)
    (in_bom yes) (on_board yes) (fields_autoplaced)
    (uuid e940abae-4b03-4d64-833d-2c2a8f4b7ce6)
    (property "Reference" "R23" (id 0) (at 151.13 121.9199 0)
      (effects (font (size 1.27 1.27)) (justify left))
    )
    (property "Value" "1K" (id 1) (at 151.13 124.4599 0)
      (effects (font (size 1.27 1.27)) (justify left))
    )
    (property "Footprint" "Resistor_SMD:R_1206_3216Metric" (id 2) (at 146.812 123.19 90)
      (effects (font (size 1.27 1.27)) hide)
    )
    (property "Datasheet" "~" (id 3) (at 148.59 123.19 0)
      (effects (font (size 1.27 1.27)) hide)
    )
    (pin "1" (uuid db5015a7-9785-48ef-97f4-5bc6b0f4f5d7))
    (pin "2" (uuid d40915c2-c548-4bfc-94d9-2378da8c19d2))
  )

  (symbol (lib_id "Sensor_Optical:LDR03") (at 158.75 78.74 0) (unit 1)
    (in_bom yes) (on_board yes) (fields_autoplaced)
    (uuid f11b25ae-5c7d-47a1-9b4f-b8ba5508932c)
    (property "Reference" "R24" (id 0) (at 161.29 77.4699 0)
      (effects (font (size 1.27 1.27)) (justify left))
    )
    (property "Value" "LDR03" (id 1) (at 161.29 80.0099 0)
      (effects (font (size 1.27 1.27)) (justify left))
    )
    (property "Footprint" "OptoDevice:R_LDR_5.1x4.3mm_P3.4mm_Vertical" (id 2) (at 163.195 78.74 90)
      (effects (font (size 1.27 1.27)) hide)
    )
    (property "Datasheet" "http://www.elektronica-componenten.nl/WebRoot/StoreNL/Shops/61422969/54F1/BA0C/C664/31B9/2173/C0A8/2AB9/2AEF/LDR03IMP.pdf" (id 3) (at 158.75 80.01 0)
      (effects (font (size 1.27 1.27)) hide)
    )
    (pin "1" (uuid a1e241af-c8b1-40da-aebc-764874582247))
    (pin "2" (uuid d1d62dd8-ab18-4589-8a16-4840d0e3a2b2))
  )

  (symbol (lib_id "Device:R") (at 137.16 123.19 0) (unit 1)
    (in_bom yes) (on_board yes)
    (uuid f3b4c493-5f40-4e19-8b7a-bf81c939d9cc)
    (property "Reference" "R20" (id 0) (at 139.7 121.9199 0)
      (effects (font (size 1.27 1.27)) (justify left))
    )
    (property "Value" "1K" (id 1) (at 139.7 124.4599 0)
      (effects (font (size 1.27 1.27)) (justify left))
    )
    (property "Footprint" "Resistor_SMD:R_1206_3216Metric" (id 2) (at 135.382 123.19 90)
      (effects (font (size 1.27 1.27)) hide)
    )
    (property "Datasheet" "~" (id 3) (at 137.16 123.19 0)
      (effects (font (size 1.27 1.27)) hide)
    )
    (pin "1" (uuid 054e0411-6ef7-4850-8168-dbb48736761b))
    (pin "2" (uuid 2bab2655-029d-4134-91a9-be61b7939663))
  )
)
